<?xml version="1.0" standalone="no"?>
<!DOCTYPE svg PUBLIC "-//W3C//DTD SVG 1.1//EN" "http://www.w3.org/Graphics/SVG/1.1/DTD/svg11.dtd" >
<svg>
<metadata>
Created by FontForge 20110222 at Sun Jun 30 13:33:43 2013
 By Orthosie Webhosting
Copyright (c) Mark Simonson, 2005. All rights reserved.
</metadata>
<defs>
<font id="ProximaNovaAltRegular" horiz-adv-x="572" >
  <font-face 
    font-family="ProximaNovaAltRegular"
    font-weight="400"
    font-stretch="normal"
    units-per-em="1000"
    panose-1="2 0 5 6 3 0 0 2 0 4"
    ascent="790"
    descent="-210"
    x-height="483"
    cap-height="667"
    bbox="-171 -199 1053 890"
    underline-thickness="20"
    underline-position="-113"
    unicode-range="U+000D-FB02"
  />
<missing-glyph horiz-adv-x="507" 
d="M429 -90h-351v842h351v-842zM397 -60v782h-288v-782h288z" />
    <glyph glyph-name="fi" unicode="fi" horiz-adv-x="509" 
d="M171 0h-75v417h-80v66h80v37q0 74 38.5 115.5t101.5 41.5q45 0 74 -16l-19 -57q-19 11 -43 11q-77 0 -77 -95v-37h98v-66h-98v-417zM397 552q-21 0 -36 14.5t-15 35.5t15 36t36 15t35.5 -15t14.5 -36t-14.5 -35.5t-35.5 -14.5zM434 0h-75v483h75v-483z" />
    <glyph glyph-name="fl" unicode="fl" horiz-adv-x="553" 
d="M171 0h-75v417h-80v66h80v37q0 74 38.5 115.5t101.5 41.5q45 0 74 -16l-19 -57q-19 11 -43 11q-77 0 -77 -95v-37h98v-66h-98v-417zM466 -12q-53 0 -80 29t-27 84v566h75v-550q0 -28 12.5 -45t36.5 -17q33 0 50 21l23 -57q-34 -31 -90 -31z" />
    <glyph glyph-name=".notdef" horiz-adv-x="507" 
d="M429 -90h-351v842h351v-842zM397 -60v782h-288v-782h288z" />
    <glyph glyph-name=".null" horiz-adv-x="0" 
 />
    <glyph glyph-name="nonmarkingreturn" horiz-adv-x="333" 
 />
    <glyph glyph-name="NUL" horiz-adv-x="0" 
 />
    <glyph glyph-name="NUL" horiz-adv-x="0" 
 />
    <glyph glyph-name="CR" unicode="&#xd;" horiz-adv-x="0" 
 />
    <glyph glyph-name="space" unicode=" " horiz-adv-x="259" 
 />
    <glyph glyph-name="exclam" unicode="!" horiz-adv-x="230" 
d="M146 187h-62l-16 480h94zM115 -10q-22 0 -38.5 16.5t-16.5 38.5q0 23 16 39t39 16t39 -16t16 -39q0 -22 -16.5 -38.5t-38.5 -16.5z" />
    <glyph glyph-name="quotedbl" unicode="&#x22;" horiz-adv-x="344" 
d="M118 412h-37q-27 205 -27 219q0 19 13 32.5t32 13.5t32.5 -13.5t13.5 -32.5zM263 412h-37q-27 205 -27 219q0 19 13.5 32.5t32.5 13.5t32 -13.5t13 -32.5z" />
    <glyph glyph-name="numbersign" unicode="#" horiz-adv-x="591" 
d="M300 0h-61l61 181h-111l-60 -181h-62l61 181h-106l17 53h107l66 199h-108l16 52h110l60 182h62l-60 -182h110l60 182h61l-61 -182h107l-15 -52h-109l-67 -199h111l-16 -53h-113zM317 234l67 199h-110l-67 -199h110z" />
    <glyph glyph-name="dollar" unicode="$" horiz-adv-x="593" 
d="M271 -100v89q-143 9 -228 105l50 64q69 -82 178 -94v243q-48 13 -77 24t-63 32t-50.5 53t-16.5 76q0 76 58 127t149 58v91h61v-92q119 -10 198 -92l-50 -61q-58 64 -148 77v-218q38 -11 62.5 -19.5t56 -25t50 -35.5t31.5 -49.5t13 -68.5q0 -76 -52.5 -131.5t-160.5 -63.5
v-89h-61zM459 178q0 45 -33 70t-94 43v-228q66 7 96.5 40t30.5 75zM150 497q0 -38 31 -60t90 -39v204q-54 -4 -87.5 -33t-33.5 -72z" />
    <glyph glyph-name="percent" unicode="%" horiz-adv-x="732" 
d="M192 348q-71 0 -116 46.5t-45 116.5q0 72 45 119t116 47t116 -47t45 -119q0 -70 -45 -116.5t-116 -46.5zM183 0h-55l426 667h56zM540 -12q-71 0 -116 47t-45 117q0 71 45 118t116 47q70 0 115 -47t45 -118t-44.5 -117.5t-115.5 -46.5zM192 399q44 0 72.5 32t28.5 80
q0 50 -28 82.5t-73 32.5q-44 0 -72.5 -32.5t-28.5 -82.5q0 -48 28.5 -80t72.5 -32zM540 39q45 0 73 32t28 81t-28 81.5t-73 32.5t-73.5 -32.5t-28.5 -81.5t28.5 -81t73.5 -32z" />
    <glyph glyph-name="ampersand" unicode="&#x26;" horiz-adv-x="642" 
d="M613 0h-104q-20 17 -73 70q-82 -82 -192 -82q-90 0 -148.5 48.5t-58.5 137.5q0 71 39 116t108 83q-51 87 -51 150q0 66 48.5 110t119.5 44q66 0 108 -35t42 -96q0 -36 -13 -64.5t-42 -52t-51 -36.5t-64 -35q32 -43 78 -95q36 -43 79 -89q44 68 72 153l64 -29
q-44 -106 -91 -172q62 -64 130 -126zM252 50q75 0 139 66q-66 69 -92 101q-48 55 -83 106q-99 -60 -99 -144q0 -60 39.5 -94.5t95.5 -34.5zM210 521q0 -47 40 -115q65 32 98.5 62t33.5 75q0 36 -22 56t-57 20q-39 0 -66 -27.5t-27 -70.5z" />
    <glyph glyph-name="quotesingle" unicode="'" horiz-adv-x="199" 
d="M118 412h-37q-27 205 -27 219q0 19 13 32.5t32 13.5t32.5 -13.5t13.5 -32.5z" />
    <glyph glyph-name="parenleft" unicode="(" horiz-adv-x="248" 
d="M231 -164l-46 -35q-141 194 -141 442t141 442l46 -34q-53 -104 -79 -197t-26 -211q0 -117 26 -210.5t79 -196.5z" />
    <glyph glyph-name="parenright" unicode=")" horiz-adv-x="248" 
d="M63 -199l-46 35q53 103 79 196.5t26 210.5q0 118 -26 211t-79 197l46 34q141 -194 141 -442t-141 -442z" />
    <glyph glyph-name="asterisk" unicode="*" horiz-adv-x="340" 
d="M193 389h-46l6 115l-97 -62l-22 39l102 52l-102 52l22 40l97 -63l-6 115h46l-6 -115l96 63l23 -40l-102 -52l102 -52l-23 -39l-96 62z" />
    <glyph glyph-name="plus" unicode="+" horiz-adv-x="499" 
d="M470 311h-192v-213h-57v213h-192v52h192v207h57v-207h192v-52z" />
    <glyph glyph-name="comma" unicode="," horiz-adv-x="230" 
d="M176 24q0 -44 -22.5 -84.5t-58.5 -66.5l-38 31q25 16 43.5 42.5t21.5 50.5q-4 -2 -14 -2q-20 0 -34 14.5t-14 36.5t15.5 38t37.5 16q27 0 45 -20.5t18 -55.5z" />
    <glyph glyph-name="hyphen" unicode="-" horiz-adv-x="300" 
d="M270 209h-240v66h240v-66z" />
    <glyph glyph-name="period" unicode="." horiz-adv-x="231" 
d="M115 -10q-23 0 -39 16t-16 39t16 39t39 16t39 -16t16 -39t-16 -39t-39 -16z" />
    <glyph glyph-name="slash" unicode="/" horiz-adv-x="296" 
d="M59 -20h-59l237 707h59z" />
    <glyph glyph-name="zero" unicode="0" horiz-adv-x="612" 
d="M306 -12q-66 0 -116.5 30.5t-80 81.5t-44 110t-14.5 123t14.5 123t44 109.5t80 81t116.5 30.5q65 0 116 -30.5t80.5 -81t44 -109.5t14.5 -123t-14.5 -123t-44 -110t-80.5 -81.5t-116 -30.5zM306 62q60 0 100 41.5t55 99.5t15 130t-15 130t-55 99t-100 41t-100 -41
t-55 -99t-15 -130t15 -130t55 -99.5t100 -41.5z" />
    <glyph glyph-name="one" unicode="1" horiz-adv-x="339" 
d="M261 0h-83v558l-107 -114l-50 51l167 172h73v-667z" />
    <glyph glyph-name="two" unicode="2" horiz-adv-x="588" 
d="M512 0h-458v67q205 160 288 247t83 167q0 60 -41.5 91t-98.5 31q-115 0 -181 -84l-51 53q38 50 99.5 77.5t132.5 27.5q91 0 157.5 -51t66.5 -145q0 -93 -80 -185.5t-244 -221.5h327v-74z" />
    <glyph glyph-name="three" unicode="3" horiz-adv-x="557" 
d="M266 -12q-80 0 -142 31t-95 79l49 52q30 -40 79 -64t107 -24q72 0 114 34t42 91q0 60 -44.5 89t-121.5 29q-59 0 -69 -1v76q11 -1 69 -1q68 0 111.5 27.5t43.5 82.5q0 53 -42.5 83.5t-106.5 30.5q-101 0 -176 -81l-46 52q84 103 229 103q99 0 162 -47.5t63 -129.5
q0 -66 -44 -106t-99 -49q55 -6 104.5 -49t49.5 -116q0 -85 -64.5 -138.5t-172.5 -53.5z" />
    <glyph glyph-name="four" unicode="4" horiz-adv-x="558" 
d="M432 0h-83v169h-317v69l286 429h114v-425h94v-73h-94v-169zM349 242v348l-234 -348h234z" />
    <glyph glyph-name="five" unicode="5" horiz-adv-x="590" 
d="M301 -12q-154 0 -235 107l51 56q69 -89 184 -89q68 0 111 41t43 102q0 65 -42.5 104.5t-110.5 39.5q-89 0 -154 -62l-61 21v359h408v-74h-325v-232q62 60 156 60q89 0 151 -57t62 -156t-67.5 -159.5t-170.5 -60.5z" />
    <glyph glyph-name="six" unicode="6" horiz-adv-x="591" 
d="M309 -12q-68 0 -119 28t-80.5 77t-44 109t-14.5 131q0 146 69.5 245t202.5 99q116 0 184 -80l-42 -62q-58 68 -142 68q-62 0 -106 -39t-63 -96.5t-19 -126.5v-26q25 40 77.5 72t111.5 32q95 0 156.5 -55.5t61.5 -157.5q0 -90 -64 -154t-169 -64zM305 62q72 0 112.5 44
t40.5 97q0 70 -43 107t-110 37q-49 0 -94 -27.5t-73 -71.5q6 -74 47 -130t120 -56z" />
    <glyph glyph-name="seven" unicode="7" horiz-adv-x="515" 
d="M213 0h-92l269 593h-359v74h455v-57z" />
    <glyph glyph-name="eight" unicode="8" horiz-adv-x="582" 
d="M291 -12q-102 0 -170.5 49t-68.5 132q0 63 45.5 109t113.5 66q-64 18 -106 58.5t-42 101.5q0 84 68 128.5t160 44.5t160.5 -44.5t68.5 -128.5q0 -61 -42.5 -101.5t-106.5 -58.5q68 -20 113.5 -66t45.5 -109q0 -82 -68.5 -131.5t-170.5 -49.5zM291 378q20 3 40.5 10
t46.5 19.5t42 35t16 50.5q0 50 -41.5 80t-103.5 30t-103 -29.5t-41 -80.5q0 -28 16 -50.5t42 -35t46 -19.5t40 -10zM291 62q64 0 109.5 32t45.5 84q0 40 -31.5 70.5t-64 43t-59.5 15.5q-27 -3 -59.5 -15.5t-64 -43t-31.5 -70.5q0 -52 45 -84t110 -32z" />
    <glyph glyph-name="nine" unicode="9" horiz-adv-x="591" 
d="M269 -11q-114 0 -185 80l42 62q58 -68 143 -68q64 0 108 40t62 97t18 125q0 17 -1 26q-25 -40 -77 -72t-111 -32q-95 0 -157 55.5t-62 157.5q0 90 64 154t170 64q67 0 118 -28t81 -77t44.5 -109t14.5 -131q0 -94 -28 -169.5t-91 -125t-153 -49.5zM287 319q49 0 94.5 27.5
t72.5 72.5q-3 33 -13.5 64t-29.5 59t-51.5 45t-73.5 17q-71 0 -112 -43.5t-41 -97.5q0 -70 43 -107t111 -37z" />
    <glyph glyph-name="colon" unicode=":" horiz-adv-x="225" 
d="M115 380q-22 0 -38.5 16.5t-16.5 38.5q0 23 16 39t39 16t39 -16t16 -39q0 -22 -16.5 -38.5t-38.5 -16.5zM115 -10q-23 0 -39 16t-16 39t16 39t39 16t39 -16t16 -39t-16 -39t-39 -16z" />
    <glyph glyph-name="semicolon" unicode=";" horiz-adv-x="230" 
d="M115 380q-22 0 -38.5 16.5t-16.5 38.5q0 23 16 39t39 16t39 -16t16 -39q0 -22 -16.5 -38.5t-38.5 -16.5zM176 26q0 -45 -22.5 -85t-58.5 -66l-38 30q24 16 43 43t22 51q-4 -2 -14 -2q-20 0 -34 14.5t-14 36.5t15.5 38t37.5 16q27 0 45 -20.5t18 -55.5z" />
    <glyph glyph-name="less" unicode="&#x3c;" horiz-adv-x="499" 
d="M470 90l-441 218v53l441 219v-63l-377 -183l377 -181v-63z" />
    <glyph glyph-name="equal" unicode="=" horiz-adv-x="499" 
d="M470 404h-441v53h441v-53zM470 211h-441v53h441v-53z" />
    <glyph glyph-name="greater" unicode="&#x3e;" horiz-adv-x="499" 
d="M470 308l-441 -218v63l377 181l-377 183v63l441 -219v-53z" />
    <glyph glyph-name="question" unicode="?" horiz-adv-x="462" 
d="M203 185q-38 32 -38 82q0 35 18.5 63t45 47.5t53 37.5t45 42t18.5 53q0 40 -30.5 66.5t-86.5 26.5q-99 0 -160 -82l-50 54q78 102 217 102q89 0 142.5 -44.5t53.5 -110.5q0 -42 -20 -75.5t-48.5 -54.5t-56.5 -40t-48 -42t-20 -50q0 -30 26 -48zM224 -10q-22 0 -38.5 16
t-16.5 39t16.5 39t38.5 16t38.5 -16t16.5 -39t-16.5 -39t-38.5 -16z" />
    <glyph glyph-name="at" unicode="@" horiz-adv-x="783" 
d="M352 -70q-136 0 -226.5 90.5t-90.5 223.5q0 160 119.5 277t277.5 117q139 0 227 -91.5t88 -225.5q0 -110 -52 -173t-121 -63q-40 0 -64.5 23.5t-26.5 57.5v7q-27 -39 -70 -63.5t-89 -24.5q-69 0 -111 45t-42 118q0 102 72 176.5t163 74.5q46 0 79.5 -22t48.5 -56l13 62
h68l-57 -271q-2 -12 -2 -21q0 -24 13.5 -38t33.5 -14q38 0 73.5 45t35.5 137q0 124 -78.5 203.5t-204.5 79.5q-144 0 -251.5 -108.5t-107.5 -249.5q0 -121 81 -202t205 -81q97 0 186 56l18 -26q-98 -63 -208 -63zM345 141q86 0 148 90l29 139q-10 28 -36.5 50.5t-66.5 22.5
q-73 0 -124.5 -58t-51.5 -133q0 -49 27 -80t75 -31z" />
    <glyph glyph-name="A" unicode="A" horiz-adv-x="658" 
d="M649 0h-95l-59 149h-332l-59 -149h-95l269 667h103zM471 222l-142 360l-141 -360h283z" />
    <glyph glyph-name="B" unicode="B" horiz-adv-x="629" 
d="M382 0h-304v667h297q86 0 136.5 -47t50.5 -123q0 -60 -34 -101.5t-83 -51.5q53 -8 91.5 -56t38.5 -108q0 -81 -51.5 -130.5t-141.5 -49.5zM361 378q55 0 85 30t30 77t-30.5 77.5t-84.5 30.5h-200v-215h200zM366 74q58 0 90.5 31t32.5 84q0 48 -32.5 81.5t-90.5 33.5h-205
v-230h205z" />
    <glyph glyph-name="C" unicode="C" horiz-adv-x="676" 
d="M394 -12q-146 0 -244.5 96.5t-98.5 248.5t98.5 248.5t244.5 96.5q161 0 253 -132l-69 -39q-29 44 -78.5 70.5t-105.5 26.5q-111 0 -184 -76t-73 -195q0 -118 73.5 -194.5t183.5 -76.5q56 0 105.5 27t78.5 70l70 -38q-97 -133 -254 -133z" />
    <glyph glyph-name="D" unicode="D" horiz-adv-x="700" 
d="M306 0h-228v667h228q153 0 247.5 -95t94.5 -239q0 -145 -94 -239t-248 -94zM306 74q118 0 187 74t69 185q0 112 -68 186t-188 74h-145v-519h145z" />
    <glyph glyph-name="E" unicode="E" horiz-adv-x="569" 
d="M515 0h-437v667h437v-74h-354v-215h347v-74h-347v-230h354v-74z" />
    <glyph glyph-name="F" unicode="F" horiz-adv-x="551" 
d="M161 0h-83v667h437v-74h-354v-215h347v-74h-347v-304z" />
    <glyph glyph-name="G" unicode="G" horiz-adv-x="713" 
d="M388 -13q-141 0 -239 97t-98 249q0 153 98.5 249t244.5 96q159 0 259 -124l-66 -42q-32 42 -83.5 67t-109.5 25q-111 0 -184 -76t-73 -195q0 -118 73.5 -194.5t183.5 -76.5q97 0 154 58.5t70 148.5h-274v74h364q0 -160 -84.5 -258t-235.5 -98z" />
    <glyph glyph-name="H" unicode="H" horiz-adv-x="712" 
d="M634 0h-83v306h-390v-306h-83v667h83v-287h390v287h83v-667z" />
    <glyph glyph-name="I" unicode="I" horiz-adv-x="239" 
d="M161 0h-83v667h83v-667z" />
    <glyph glyph-name="J" unicode="J" horiz-adv-x="475" 
d="M185 -12q-108 0 -174 77l44 63q53 -66 125 -66q61 0 97.5 38.5t36.5 101.5v465h83v-466q0 -104 -59 -158.5t-153 -54.5z" />
    <glyph glyph-name="K" unicode="K" horiz-adv-x="601" 
d="M585 0h-104l-253 300l-67 -76v-224h-83v667h83v-344l295 344h104l-278 -316z" />
    <glyph glyph-name="L" unicode="L" horiz-adv-x="493" 
d="M460 0h-393v667h83v-593h310v-74z" />
    <glyph glyph-name="M" unicode="M" horiz-adv-x="809" 
d="M731 0h-83v561l-226 -561h-34l-227 561v-561h-83v667h119l208 -514l207 514h119v-667z" />
    <glyph glyph-name="N" unicode="N" horiz-adv-x="708" 
d="M630 0h-80l-389 532v-532h-83v667h85l384 -521v521h83v-667z" />
    <glyph glyph-name="O" unicode="O" horiz-adv-x="765" 
d="M382 -12q-146 0 -238.5 98t-92.5 247t92.5 247t238.5 98t239 -98t93 -247t-93 -247t-239 -98zM382 62q110 0 178 76.5t68 194.5t-68 194.5t-178 76.5q-111 0 -178 -76t-67 -195q0 -118 67 -194.5t178 -76.5z" />
    <glyph glyph-name="P" unicode="P" horiz-adv-x="587" 
d="M161 0h-83v667h268q97 0 153 -58t56 -143t-56.5 -143t-152.5 -58h-185v-265zM336 339q59 0 96 35.5t37 91.5t-37 91.5t-96 35.5h-175v-254h175z" />
    <glyph glyph-name="Q" unicode="Q" horiz-adv-x="765" 
d="M382 -12q-146 0 -238.5 98t-92.5 247t92.5 247t238.5 98t239 -98t93 -247t-92 -247l63 -67l-57 -50l-65 69q-78 -50 -181 -50zM382 62q71 0 127 34l-95 103l58 49l94 -102q62 76 62 187q0 118 -68 194.5t-178 76.5q-111 0 -178 -76t-67 -195q0 -118 67 -194.5t178 -76.5z
" />
    <glyph glyph-name="R" unicode="R" horiz-adv-x="609" 
d="M562 0h-98l-169 265h-134v-265h-83v667h268q93 0 151.5 -55t58.5 -146q0 -86 -50.5 -137t-123.5 -57zM336 338q59 0 96.5 36t37.5 92q0 57 -37.5 92t-96.5 35h-175v-255h175z" />
    <glyph glyph-name="S" unicode="S" horiz-adv-x="586" 
d="M294 -12q-162 0 -256 106l50 64q83 -96 209 -96q81 0 119 35t38 81q0 47 -40.5 75t-99 42.5t-116.5 32t-98.5 58t-40.5 106.5q0 82 65 134t165 52q147 0 236 -94l-50 -61q-71 80 -193 80q-60 0 -98.5 -29.5t-38.5 -76.5q0 -35 29.5 -58t73 -34t95 -27.5t95 -35t73 -59.5
t29.5 -99q0 -81 -60.5 -138.5t-185.5 -57.5z" />
    <glyph glyph-name="T" unicode="T" horiz-adv-x="570" 
d="M326 0h-83v593h-211v74h506v-74h-212v-593z" />
    <glyph glyph-name="U" unicode="U" horiz-adv-x="701" 
d="M350 -12q-132 0 -202 72.5t-70 198.5v408h84v-406q0 -93 48.5 -146t139.5 -53t140 53t49 146v406h84v-407q0 -127 -70 -199.5t-203 -72.5z" />
    <glyph glyph-name="V" unicode="V" horiz-adv-x="658" 
d="M381 0h-103l-269 667h95l225 -576l225 576h95z" />
    <glyph glyph-name="W" unicode="W" horiz-adv-x="883" 
d="M678 0h-90l-147 538l-147 -538h-90l-190 667h92l148 -556l153 556h69l153 -556l147 556h93z" />
    <glyph glyph-name="X" unicode="X" horiz-adv-x="652" 
d="M640 0h-101l-213 284l-213 -284h-101l260 342l-245 325h101l198 -266l197 266h102l-245 -324z" />
    <glyph glyph-name="Y" unicode="Y" horiz-adv-x="626" 
d="M355 0h-83v282l-263 385h97l207 -310l207 310h97l-262 -385v-282z" />
    <glyph glyph-name="Z" unicode="Z" horiz-adv-x="585" 
d="M537 0h-489v69l375 524h-375v74h482v-69l-376 -524h383v-74z" />
    <glyph glyph-name="bracketleft" unicode="[" horiz-adv-x="243" 
d="M226 -190h-186v868h186v-55h-127v-758h127v-55z" />
    <glyph glyph-name="backslash" unicode="\" horiz-adv-x="296" 
d="M237 -20l-237 707h59l237 -707h-59z" />
    <glyph glyph-name="bracketright" unicode="]" horiz-adv-x="243" 
d="M204 -190h-187v55h128v758h-128v55h187v-868z" />
    <glyph glyph-name="asciicircum" unicode="^" horiz-adv-x="432" 
d="M413 333h-62l-135 279l-135 -279h-62l169 334h57z" />
    <glyph glyph-name="underscore" unicode="_" horiz-adv-x="564" 
d="M567 -95h-570v55h570v-55z" />
    <glyph glyph-name="grave" unicode="`" horiz-adv-x="226" 
d="M226 556h-57l-169 144h78z" />
    <glyph glyph-name="a" unicode="a" horiz-adv-x="575" 
d="M500 0h-75v72q-62 -84 -163 -84q-96 0 -155.5 68.5t-59.5 184.5q0 115 60 184.5t155 69.5q100 0 163 -85v73h75v-483zM281 55q43 0 83.5 22.5t60.5 54.5v218q-20 33 -60.5 55.5t-83.5 22.5q-72 0 -114 -52.5t-42 -134.5t42 -134t114 -52z" />
    <glyph glyph-name="b" unicode="b" horiz-adv-x="575" 
d="M150 131q20 -32 60.5 -54t84.5 -22q71 0 113 52t42 134t-42 134.5t-113 52.5q-44 0 -84.5 -22.5t-60.5 -55.5v-219zM150 0h-75v667h75v-257q63 85 163 85q96 0 155.5 -69.5t59.5 -184.5q0 -116 -59.5 -184.5t-155.5 -68.5q-101 0 -163 84v-72z" />
    <glyph glyph-name="c" unicode="c" horiz-adv-x="496" 
d="M288 -12q-107 0 -174 72.5t-67 181.5t67 181t174 72q112 0 177 -84l-50 -45q-45 62 -123 62q-75 0 -121 -52.5t-46 -133.5q0 -82 46 -134.5t121 -52.5q76 0 123 63l50 -46q-65 -84 -177 -84z" />
    <glyph glyph-name="d" unicode="d" horiz-adv-x="575" 
d="M500 0h-75v72q-62 -84 -163 -84q-96 0 -155.5 68.5t-59.5 184.5q0 115 60 184.5t155 69.5q100 0 163 -85v257h75v-667zM281 55q43 0 83.5 22.5t60.5 54.5v218q-20 33 -60.5 55.5t-83.5 22.5q-72 0 -114 -52.5t-42 -134.5t42 -134t114 -52z" />
    <glyph glyph-name="e" unicode="e" horiz-adv-x="563" 
d="M294 -12q-109 0 -178 70.5t-69 183.5q0 106 68 179.5t170 73.5q107 0 169.5 -73.5t62.5 -185.5v-19h-390q5 -71 51.5 -119t121.5 -48q90 0 150 62l36 -49q-77 -75 -192 -75zM443 273q-1 61 -42 110.5t-117 49.5q-72 0 -113.5 -49t-44.5 -111h317z" />
    <glyph glyph-name="f" unicode="f" horiz-adv-x="284" 
d="M171 0h-75v417h-80v66h80v37q0 74 38.5 115.5t101.5 41.5q45 0 74 -16l-19 -57q-19 11 -43 11q-77 0 -77 -95v-37h98v-66h-98v-417z" />
    <glyph glyph-name="g" unicode="g" horiz-adv-x="575" 
d="M269 -196q-63 0 -108 16t-87 57l38 54q55 -65 157 -65q66 0 111 34.5t45 106.5v73q-28 -39 -71 -62.5t-92 -23.5q-96 0 -155.5 67.5t-59.5 182.5t59.5 183t155.5 68q100 0 163 -85v73h75v-476q0 -106 -65.5 -154.5t-165.5 -48.5zM281 61q43 0 83 22.5t61 55.5v212
q-21 32 -61 54.5t-83 22.5q-72 0 -114 -51t-42 -133q0 -81 42 -132t114 -51z" />
    <glyph glyph-name="h" unicode="h" horiz-adv-x="552" 
d="M477 0h-75v318q0 61 -28 85.5t-81 24.5q-41 0 -80.5 -22t-61.5 -53v-353h-75v667h75v-254q27 34 74 58t98 24q154 0 154 -154v-341z" />
    <glyph glyph-name="i" unicode="i" horiz-adv-x="225" 
d="M113 552q-21 0 -36 14.5t-15 35.5t15 36t36 15t35.5 -15t14.5 -36t-14.5 -35.5t-35.5 -14.5zM150 0h-75v483h75v-483z" />
    <glyph glyph-name="j" unicode="j" horiz-adv-x="225" 
d="M113 552q-21 0 -36 14.5t-15 35.5t15 36t36 15t35.5 -15t14.5 -36t-14.5 -35.5t-35.5 -14.5zM7 -196q-60 0 -105 36l26 56q30 -30 69 -30q36 0 57 21.5t21 65.5v530h75v-530q0 -72 -37 -110.5t-106 -38.5z" />
    <glyph glyph-name="k" unicode="k" horiz-adv-x="514" 
d="M500 0h-96l-173 217l-81 -79v-138h-75v667h75v-441l254 257h95l-214 -219z" />
    <glyph glyph-name="l" unicode="l" horiz-adv-x="269" 
d="M182 -12q-53 0 -80 29t-27 84v566h75v-550q0 -28 12.5 -45t36.5 -17q33 0 50 21l23 -57q-34 -31 -90 -31z" />
    <glyph glyph-name="m" unicode="m" horiz-adv-x="808" 
d="M733 0h-75v328q0 100 -89 100q-36 0 -72 -21.5t-56 -52.5v-354h-75v328q0 100 -89 100q-35 0 -70.5 -22t-56.5 -53v-353h-75v483h75v-70q19 29 63.5 55.5t93.5 26.5q52 0 85 -25t44 -65q22 36 67 63t95 27q135 0 135 -146v-349z" />
    <glyph glyph-name="n" unicode="n" horiz-adv-x="552" 
d="M476 0h-74v316q0 61 -28 86.5t-81 25.5q-42 0 -81 -22t-62 -53v-353h-75v483h75v-70q28 34 75 58t98 24q153 0 153 -156v-339z" />
    <glyph glyph-name="o" unicode="o" 
d="M286 -12q-108 0 -173.5 73t-65.5 181t65.5 180.5t173.5 72.5t173.5 -72.5t65.5 -180.5t-65.5 -181t-173.5 -73zM286 55q74 0 117 54.5t43 132.5t-43 132t-117 54t-117 -54t-43 -132t43 -132.5t117 -54.5z" />
    <glyph glyph-name="p" unicode="p" 
d="M313 -12q-99 0 -163 85v-257h-75v667h75v-72q27 38 70 61t93 23q96 0 155.5 -68.5t59.5 -184.5t-59.5 -185t-155.5 -69zM294 55q71 0 113 52.5t42 134.5t-42 134t-113 52q-43 0 -83.5 -22.5t-60.5 -54.5v-218q20 -33 60.5 -55.5t83.5 -22.5z" />
    <glyph glyph-name="q" unicode="q" 
d="M278 55q43 0 83.5 22.5t60.5 55.5v218q-20 32 -60.5 54.5t-83.5 22.5q-71 0 -113 -52t-42 -134t42 -134.5t113 -52.5zM259 -12q-96 0 -155.5 69t-59.5 185t59.5 184.5t155.5 68.5q50 0 93 -23t70 -61v72h75v-667h-75v257q-64 -85 -163 -85z" />
    <glyph glyph-name="r" unicode="r" horiz-adv-x="330" 
d="M150 0h-75v483h75v-77q69 88 161 88v-77q-18 2 -29 2q-35 0 -75 -23.5t-57 -53.5v-342z" />
    <glyph glyph-name="s" unicode="s" horiz-adv-x="465" 
d="M229 -12q-122 0 -195 76l38 54q25 -29 68.5 -49t90.5 -20q54 0 84.5 23t30.5 60q0 32 -31 50.5t-75 28t-87.5 22t-74.5 43t-31 80.5q0 59 48 99t131 40q111 0 179 -70l-35 -52q-51 61 -144 61q-49 0 -78 -21.5t-29 -54.5q0 -24 22 -40t55.5 -23t72 -18t72 -24.5t55.5 -44
t22 -74.5q0 -64 -49.5 -105t-139.5 -41z" />
    <glyph glyph-name="t" unicode="t" horiz-adv-x="294" 
d="M198 -12q-108 0 -108 113v316h-80v66h80v132h76v-132h98v-66h-98v-300q0 -28 12.5 -45t35.5 -17q32 0 51 21l22 -57q-33 -31 -89 -31z" />
    <glyph glyph-name="u" unicode="u" horiz-adv-x="551" 
d="M476 0h-75v68q-30 -34 -75.5 -57t-96.5 -23q-154 0 -154 154v341h75v-318q0 -60 28 -85t81 -25q42 0 81 21t61 52v355h75v-483z" />
    <glyph glyph-name="v" unicode="v" horiz-adv-x="490" 
d="M286 0h-82l-201 483h82l160 -396l161 396h81z" />
    <glyph glyph-name="w" unicode="w" horiz-adv-x="734" 
d="M569 0h-76l-126 388l-126 -388h-75l-154 483h78l118 -385l127 385h65l126 -385l118 385h79z" />
    <glyph glyph-name="x" unicode="x" horiz-adv-x="487" 
d="M475 0h-86l-146 198l-145 -198h-86l185 248l-175 235h87l134 -184l135 184h86l-175 -235z" />
    <glyph glyph-name="y" unicode="y" horiz-adv-x="551" 
d="M255 -196q-112 0 -185 73l38 54q52 -65 147 -65q68 0 107 37t39 103v72q-30 -34 -75.5 -57t-96.5 -23q-154 0 -154 154v331h75v-308q0 -61 28 -86t81 -25q41 0 80.5 21.5t61.5 51.5v346h75v-477q0 -98 -63 -150t-158 -52z" />
    <glyph glyph-name="z" unicode="z" horiz-adv-x="472" 
d="M420 0h-368v59l266 358h-266v66h364v-57l-268 -360h272v-66z" />
    <glyph glyph-name="braceleft" unicode="{" horiz-adv-x="261" 
d="M244 -190h-62q-50 0 -87 37.5t-37 96.5v206q0 30 -13.5 49.5t-39.5 19.5v50q26 0 39.5 19.5t13.5 49.5v205q0 60 37 97.5t87 37.5h62v-55h-62q-27 0 -46.5 -22.5t-19.5 -56.5v-212q0 -69 -45 -88q45 -19 45 -88v-211q0 -34 19.5 -57t46.5 -23h62v-55z" />
    <glyph glyph-name="bar" unicode="|" horiz-adv-x="211" 
d="M133 -20h-55v707h55v-707z" />
    <glyph glyph-name="braceright" unicode="}" horiz-adv-x="261" 
d="M17 -190v55h61q27 0 47 23t20 57v211q0 69 45 88q-45 19 -45 88v212q0 34 -19.5 56.5t-47.5 22.5h-61v55h61q50 0 87.5 -37.5t37.5 -97.5v-205q0 -30 13.5 -49.5t38.5 -19.5v-50q-25 0 -38.5 -19.5t-13.5 -49.5v-206q0 -59 -37.5 -96.5t-87.5 -37.5h-61z" />
    <glyph glyph-name="asciitilde" unicode="~" horiz-adv-x="503" 
d="M420 667l55 -6q-5 -51 -12.5 -89t-22.5 -74.5t-40.5 -55.5t-61.5 -19q-35 0 -58.5 19.5t-35 47.5t-21 56t-23.5 47.5t-35 19.5q-63 0 -82 -191l-56 7q5 50 13 88.5t23 74.5t41 55t61 19t58.5 -19.5t35 -48t21 -56.5t23.5 -47.5t35 -19.5q63 0 82 192z" />
    <glyph glyph-name="uni00A0" unicode="&#xa0;" horiz-adv-x="259" 
 />
    <glyph glyph-name="exclamdown" unicode="&#xa1;" horiz-adv-x="230" 
d="M68 -184l15 480h63l16 -480h-94zM60 438q0 22 16 38.5t39 16.5q22 0 38 -16t16 -39q0 -22 -16 -38t-38 -16t-38.5 16t-16.5 38z" />
    <glyph glyph-name="cent" unicode="&#xa2;" horiz-adv-x="496" 
d="M252 -100v91q-92 12 -148.5 82t-56.5 169q0 98 56.5 167.5t148.5 82.5v73h59v-71q94 -8 154 -83l-50 -45q-40 55 -104 61v-371q63 6 104 62l50 -46q-58 -75 -154 -83v-89h-59zM125 242q0 -70 34 -120t93 -63v365q-59 -13 -93 -62.5t-34 -119.5z" />
    <glyph glyph-name="sterling" unicode="&#xa3;" horiz-adv-x="518" 
d="M20 268v54h105q-28 32 -38.5 45.5t-24.5 46t-14 66.5q0 82 66 139.5t158 57.5q68 0 121 -29.5t81 -82.5l-67 -40q-13 34 -48 58t-79 24q-59 0 -100.5 -35t-41.5 -93q0 -26 9 -50.5t17 -37t28 -37t26 -32.5h150v-54h-122q7 -23 7 -43q0 -78 -76 -132q27 9 52 9
q33 0 77 -20.5t71 -20.5q31 0 57.5 12.5t37.5 27.5l36 -67q-49 -47 -135 -47q-47 0 -95 23t-84 23q-42 0 -118 -40l-29 63q64 28 98 67.5t34 84.5q0 30 -15 60h-144z" />
    <glyph glyph-name="yen" unicode="&#xa5;" horiz-adv-x="626" 
d="M355 0h-83v122h-250v53h250v107h-250v52h214l-227 333h97l207 -310l207 310h97l-227 -333h215v-52h-250v-107h250v-53h-250v-122z" />
    <glyph glyph-name="brokenbar" unicode="&#xa6;" horiz-adv-x="211" 
d="M133 -20h-55v316h55v-316zM133 371h-55v316h55v-316z" />
    <glyph glyph-name="section" unicode="&#xa7;" horiz-adv-x="468" 
d="M418 315q0 -88 -92 -127q92 -36 92 -122q0 -69 -52 -108t-137 -39q-115 0 -195 78l38 49q59 -71 157 -71q52 0 84.5 23t32.5 63q0 34 -31 53.5t-75 30t-87.5 23.5t-74.5 43.5t-31 79.5t32.5 81.5t81.5 45.5q-114 36 -114 124q0 57 48.5 96t130.5 39q116 0 179 -71
l-35 -45q-50 60 -141 60q-49 0 -79.5 -22t-30.5 -58q0 -26 22 -42.5t55.5 -24t72 -18.5t72 -24t55.5 -43t22 -74zM344 306q0 38 -30.5 58t-82.5 33q-62 -16 -87 -40t-25 -59q0 -26 22 -44.5t41.5 -25t67.5 -18.5q7 -2 11 -3q83 36 83 99z" />
    <glyph glyph-name="dieresis" unicode="&#xa8;" horiz-adv-x="272" 
d="M286 604q0 -19 -14 -32.5t-33 -13.5t-32.5 13.5t-13.5 32.5t13.5 32.5t32.5 13.5q20 0 33.5 -13.5t13.5 -32.5zM79 604q0 -19 -13.5 -32.5t-32.5 -13.5t-33 13.5t-14 32.5t13.5 32.5t33.5 13.5q19 0 32.5 -13.5t13.5 -32.5z" />
    <glyph glyph-name="copyright" unicode="&#xa9;" horiz-adv-x="778" 
d="M734 334q0 -143 -101 -244t-244 -101t-244 101.5t-101 243.5q0 143 101 244t244 101t244 -101t101 -244zM703 334q0 130 -92 222t-222 92q-129 0 -221.5 -92t-92.5 -222q0 -129 92.5 -221.5t221.5 -92.5q130 0 222 92.5t92 221.5zM512 212l26 -25q-57 -66 -147 -66
q-87 0 -147.5 62t-60.5 153t60.5 151.5t147.5 60.5q91 0 146 -65l-25 -25q-19 26 -52.5 41.5t-68.5 15.5q-70 0 -120.5 -50.5t-50.5 -129.5q0 -77 51 -129t120 -52q36 0 68.5 16t52.5 42z" />
    <glyph glyph-name="ordfeminine" unicode="&#xaa;" horiz-adv-x="378" 
d="M318 326h-57v35q-41 -43 -108 -43q-44 0 -78 28t-34 76q0 49 33.5 76t78.5 27q68 0 108 -42v55q0 30 -23 47.5t-57 17.5q-59 0 -98 -46l-26 38q52 53 131 53q57 0 93.5 -27t36.5 -84v-211zM175 356q56 0 86 38v56q-30 38 -86 38q-33 0 -54.5 -18.5t-21.5 -47.5
q0 -30 21.5 -48t54.5 -18z" />
    <glyph glyph-name="guillemotleft" unicode="&#xab;" horiz-adv-x="439" 
d="M409 63h-75l-160 180l160 177h75l-160 -177zM265 63h-75l-160 180l160 177h75l-160 -177z" />
    <glyph glyph-name="logicalnot" unicode="&#xac;" horiz-adv-x="504" 
d="M470 457v-246h-55v193h-386v53h441z" />
    <glyph glyph-name="registered" unicode="&#xae;" horiz-adv-x="494" 
d="M459 465q0 -88 -62 -150t-150 -62t-150 62t-62 150t62 150t150 62q89 0 150.5 -61.5t61.5 -150.5zM430 465q0 77 -53.5 130t-129.5 53t-129.5 -53t-53.5 -130q0 -75 53.5 -129t129.5 -54t129.5 54t53.5 129zM345 343h-40l-63 96h-44v-96h-32v243h99q32 0 54.5 -20.5
t22.5 -53.5q0 -35 -22.5 -53.5t-39.5 -18.5zM309 512q0 19 -13.5 32.5t-30.5 13.5h-67v-90h67q16 0 30 13t14 31z" />
    <glyph glyph-name="macron" unicode="&#xaf;" horiz-adv-x="363" 
d="M363 591h-363v48h363v-48z" />
    <glyph glyph-name="degree" unicode="&#xb0;" horiz-adv-x="290" 
d="M267 555q0 -51 -36 -86.5t-86 -35.5q-51 0 -86.5 35.5t-35.5 86.5q0 50 35.5 86t86.5 36q50 0 86 -36t36 -86zM219 555q0 30 -22 52t-52 22t-51.5 -22t-21.5 -52q0 -31 21 -52t52 -21q30 0 52 21.5t22 51.5z" />
    <glyph glyph-name="plusminus" unicode="&#xb1;" horiz-adv-x="499" 
d="M470 324h-192v-213h-57v213h-192v52h192v207h57v-207h192v-52zM470 0h-441v53h441v-53z" />
    <glyph glyph-name="twosuperior" unicode="&#xb2;" horiz-adv-x="388" 
d="M341 421h-291v45q125 90 177 141.5t52 97.5q0 36 -25 54.5t-60 18.5t-65 -15t-47 -37l-33 38q50 63 147 63q60 0 101.5 -30t41.5 -88q0 -55 -50 -110.5t-151 -128.5h203v-49z" />
    <glyph glyph-name="threesuperior" unicode="&#xb3;" horiz-adv-x="388" 
d="M343 530q0 -52 -40.5 -84t-110.5 -32q-103 0 -150 65l33 38q43 -54 116 -54q43 0 67.5 19t24.5 51q0 69 -104 69q-34 0 -40 -1v50q7 -1 40 -1q98 0 98 64q0 30 -25.5 47t-64.5 17q-64 0 -109 -48l-31 35q55 62 146 62q64 0 103.5 -29t39.5 -78q0 -40 -27 -63.5t-62 -28.5
q35 -4 65.5 -29.5t30.5 -68.5z" />
    <glyph glyph-name="acute" unicode="&#xb4;" horiz-adv-x="226" 
d="M226 700l-169 -144h-57l148 144h78z" />
    <glyph glyph-name="mu" unicode="&#xb5;" horiz-adv-x="551" 
d="M150 -184h-75v667h75v-318q0 -61 28 -86.5t81 -25.5q41 0 80.5 22t61.5 53v355h75v-483h-75v68q-30 -34 -75.5 -57t-96.5 -23q-46 0 -79 14v-186z" />
    <glyph glyph-name="paragraph" unicode="&#xb6;" horiz-adv-x="449" 
d="M378 -100h-45v722h-89v-722h-45v423q-71 0 -121.5 50.5t-50.5 121.5t50.5 121.5t121.5 50.5h179v-767z" />
    <glyph glyph-name="periodcentered" unicode="&#xb7;" horiz-adv-x="231" 
d="M170 245q0 -23 -16 -39t-39 -16t-39 16t-16 39q0 22 16.5 38t38.5 16t38.5 -16t16.5 -38z" />
    <glyph glyph-name="cedilla" unicode="&#xb8;" horiz-adv-x="205" 
d="M101 -191q-63 0 -101 30l19 38q36 -29 80 -29q26 0 43.5 11t17.5 31q0 35 -37 35q-24 0 -38 -17l-33 19l31 84h45l-26 -66q14 11 37 11q29 0 47.5 -18.5t18.5 -48.5q0 -36 -29.5 -58t-74.5 -22z" />
    <glyph glyph-name="onesuperior" unicode="&#xb9;" horiz-adv-x="235" 
d="M175 421h-60v322l-66 -69l-35 37l108 110h53v-400z" />
    <glyph glyph-name="ordmasculine" unicode="&#xba;" horiz-adv-x="405" 
d="M202 318q-72 0 -117 48t-45 117q0 70 44.5 117.5t117.5 47.5q74 0 118.5 -47.5t44.5 -117.5t-44.5 -117.5t-118.5 -47.5zM202 366q48 0 76 33.5t28 83.5t-28 83t-76 33q-47 0 -74.5 -33t-27.5 -83q0 -51 27.5 -84t74.5 -33z" />
    <glyph glyph-name="guillemotright" unicode="&#xbb;" horiz-adv-x="439" 
d="M265 243l-160 -180h-75l160 180l-160 177h75zM409 243l-160 -180h-75l160 180l-160 177h75z" />
    <glyph glyph-name="onequarter" unicode="&#xbc;" horiz-adv-x="770" 
d="M590 667l-427 -667h-54l426 667h55zM733 100h-57v-100h-60v100h-196v45l173 255h83v-251h57v-49zM616 149v198l-136 -198h136zM175 267h-60v322l-66 -69l-35 37l108 110h53v-400z" />
    <glyph glyph-name="onehalf" unicode="&#xbd;" horiz-adv-x="807" 
d="M590 667l-427 -667h-54l426 667h55zM760 0h-291v45q125 90 177 141.5t52 97.5q0 36 -25 54.5t-60 18.5t-65 -15t-47 -37l-33 38q50 63 147 63q60 0 101.5 -30t41.5 -88q0 -55 -50 -110.5t-151 -128.5h203v-49zM175 267h-60v322l-66 -69l-35 37l108 110h53v-400z" />
    <glyph glyph-name="threequarters" unicode="&#xbe;" horiz-adv-x="878" 
d="M698 667l-427 -667h-54l426 667h55zM842 100h-57v-100h-60v100h-196v45l173 255h83v-251h57v-49zM725 149v198l-136 -198h136zM343 376q0 -52 -40.5 -84t-110.5 -32q-103 0 -150 65l33 38q43 -54 116 -54q43 0 67.5 19t24.5 51q0 69 -104 69q-34 0 -40 -1v50q7 -1 40 -1
q98 0 98 64q0 30 -25.5 47t-64.5 17q-64 0 -109 -48l-31 35q55 62 146 62q64 0 103.5 -29t39.5 -78q0 -40 -27 -63.5t-62 -28.5q35 -4 65.5 -29.5t30.5 -68.5z" />
    <glyph glyph-name="questiondown" unicode="&#xbf;" horiz-adv-x="394" 
d="M259 296q38 -32 38 -82q0 -35 -18.5 -63t-45 -47.5t-53 -37.5t-45 -42t-18.5 -53q0 -40 30.5 -66.5t86.5 -26.5q99 0 160 81l50 -53q-78 -102 -217 -102q-89 0 -142.5 44.5t-53.5 110.5q0 42 20 75.5t48.5 54.5t56.5 40t48 42t20 50q0 30 -26 48zM238 493
q22 0 38.5 -16.5t16.5 -38.5t-16.5 -38.5t-38.5 -16.5t-38.5 16.5t-16.5 38.5t16.5 38.5t38.5 16.5z" />
    <glyph glyph-name="Agrave" unicode="&#xc0;" horiz-adv-x="658" 
d="M396 728h-57l-169 144h78zM649 0h-95l-59 149h-332l-59 -149h-95l269 667h103zM471 222l-142 360l-141 -360h283z" />
    <glyph glyph-name="Aacute" unicode="&#xc1;" horiz-adv-x="658" 
d="M490 872l-169 -144h-57l148 144h78zM649 0h-95l-59 149h-332l-59 -149h-95l269 667h103zM471 222l-142 360l-141 -360h283z" />
    <glyph glyph-name="Acircumflex" unicode="&#xc2;" horiz-adv-x="658" 
d="M463 728h-51l-83 106l-80 -106h-51l95 144h72zM649 0h-95l-59 149h-332l-59 -149h-95l269 667h103zM471 222l-142 360l-141 -360h283z" />
    <glyph glyph-name="Atilde" unicode="&#xc3;" horiz-adv-x="658" 
d="M389 726q-24 0 -42.5 14.5t-28 31.5t-23 31.5t-29.5 14.5q-21 0 -34.5 -21.5t-13.5 -64.5h-45q0 60 25.5 97t71.5 37q24 0 42.5 -14.5t28 -31.5t23 -31.5t29.5 -14.5q21 0 34.5 21.5t13.5 64.5h45q0 -60 -25.5 -97t-71.5 -37zM649 0h-95l-59 149h-332l-59 -149h-95
l269 667h103zM471 222l-142 360l-141 -360h283z" />
    <glyph glyph-name="Adieresis" unicode="&#xc4;" horiz-adv-x="658" 
d="M480 773q0 -19 -14 -32.5t-33 -13.5t-32.5 13.5t-13.5 32.5t13.5 32.5t32.5 13.5q20 0 33.5 -13.5t13.5 -32.5zM273 773q0 -19 -13.5 -32.5t-32.5 -13.5t-33 13.5t-14 32.5t13.5 32.5t33.5 13.5q19 0 32.5 -13.5t13.5 -32.5zM649 0h-95l-59 149h-332l-59 -149h-95
l269 667h103zM471 222l-142 360l-141 -360h283z" />
    <glyph glyph-name="Aring" unicode="&#xc5;" horiz-adv-x="658" 
d="M330 692q-40 0 -69.5 29t-29.5 70t29.5 70t69.5 29t68.5 -29t28.5 -70t-28.5 -70t-68.5 -29zM330 732q24 0 41 17.5t17 41.5t-17 41.5t-41 17.5q-25 0 -42 -17.5t-17 -41.5t17 -41.5t42 -17.5zM649 0h-95l-59 149h-332l-59 -149h-95l269 667h103zM471 222l-142 360
l-141 -360h283z" />
    <glyph glyph-name="AE" unicode="&#xc6;" horiz-adv-x="948" 
d="M893 0h-437v149h-262l-92 -149h-95l416 667h470v-74h-354v-215h347v-74h-347v-230h354v-74zM456 222v360l-222 -360h222z" />
    <glyph glyph-name="Ccedilla" unicode="&#xc7;" horiz-adv-x="676" 
d="M388 -187q-64 0 -101 30l19 38q36 -29 80 -29q26 0 43.5 11t17.5 31q0 35 -37 35q-24 0 -38 -17l-33 19l21 59q-134 11 -221.5 105.5t-87.5 237.5q0 152 98.5 248.5t244.5 96.5q161 0 253 -132l-69 -39q-29 44 -78.5 70.5t-105.5 26.5q-111 0 -184 -76t-73 -195
q0 -118 73.5 -194.5t183.5 -76.5q56 0 105.5 27t78.5 70l70 -38q-95 -129 -244 -133l-15 -39q14 11 37 11q29 0 47.5 -18.5t18.5 -48.5q0 -36 -29.5 -58t-74.5 -22z" />
    <glyph glyph-name="Egrave" unicode="&#xc8;" horiz-adv-x="569" 
d="M363 728h-57l-169 144h78zM515 0h-437v667h437v-74h-354v-215h347v-74h-347v-230h354v-74z" />
    <glyph glyph-name="Eacute" unicode="&#xc9;" horiz-adv-x="569" 
d="M456 872l-169 -144h-57l148 144h78zM515 0h-437v667h437v-74h-354v-215h347v-74h-347v-230h354v-74z" />
    <glyph glyph-name="Ecircumflex" unicode="&#xca;" horiz-adv-x="569" 
d="M428 728h-51l-83 106l-80 -106h-51l95 144h72zM515 0h-437v667h437v-74h-354v-215h347v-74h-347v-230h354v-74z" />
    <glyph glyph-name="Edieresis" unicode="&#xcb;" horiz-adv-x="569" 
d="M446 773q0 -19 -14 -32.5t-33 -13.5t-32.5 13.5t-13.5 32.5t13.5 32.5t32.5 13.5q20 0 33.5 -13.5t13.5 -32.5zM239 773q0 -19 -13.5 -32.5t-32.5 -13.5t-33 13.5t-14 32.5t13.5 32.5t33.5 13.5q19 0 32.5 -13.5t13.5 -32.5zM515 0h-437v667h437v-74h-354v-215h347v-74
h-347v-230h354v-74z" />
    <glyph glyph-name="Igrave" unicode="&#xcc;" horiz-adv-x="239" 
d="M185 728h-57l-169 144h78zM161 0h-83v667h83v-667z" />
    <glyph glyph-name="Iacute" unicode="&#xcd;" horiz-adv-x="239" 
d="M281 872l-169 -144h-57l148 144h78zM161 0h-83v667h83v-667z" />
    <glyph glyph-name="Icircumflex" unicode="&#xce;" horiz-adv-x="239" 
d="M252 728h-51l-83 106l-80 -106h-51l95 144h72zM161 0h-83v667h83v-667z" />
    <glyph glyph-name="Idieresis" unicode="&#xcf;" horiz-adv-x="239" 
d="M269 773q0 -19 -14 -32.5t-33 -13.5t-32.5 13.5t-13.5 32.5t13.5 32.5t32.5 13.5q20 0 33.5 -13.5t13.5 -32.5zM62 773q0 -19 -13.5 -32.5t-32.5 -13.5t-33 13.5t-14 32.5t13.5 32.5t33.5 13.5q19 0 32.5 -13.5t13.5 -32.5zM161 0h-83v667h83v-667z" />
    <glyph glyph-name="Eth" unicode="&#xd0;" horiz-adv-x="728" 
d="M334 0h-228v299h-96v61h96v307h228q153 0 247.5 -95t94.5 -239q0 -145 -94 -239t-248 -94zM358 299h-169v-225h145q118 0 187 74t69 185q0 112 -68 186t-188 74h-145v-233h169v-61z" />
    <glyph glyph-name="Ntilde" unicode="&#xd1;" horiz-adv-x="708" 
d="M412 726q-24 0 -42.5 14.5t-28 31.5t-23 31.5t-29.5 14.5q-21 0 -34.5 -21.5t-13.5 -64.5h-45q0 60 25.5 97t71.5 37q24 0 42.5 -14.5t28 -31.5t23 -31.5t29.5 -14.5q21 0 34.5 21.5t13.5 64.5h45q0 -60 -25.5 -97t-71.5 -37zM630 0h-80l-389 532v-532h-83v667h85
l384 -521v521h83v-667z" />
    <glyph glyph-name="Ograve" unicode="&#xd2;" horiz-adv-x="765" 
d="M452 728h-57l-169 144h78zM382 -12q-146 0 -238.5 98t-92.5 247t92.5 247t238.5 98t239 -98t93 -247t-93 -247t-239 -98zM382 62q110 0 178 76.5t68 194.5t-68 194.5t-178 76.5q-111 0 -178 -76t-67 -195q0 -118 67 -194.5t178 -76.5z" />
    <glyph glyph-name="Oacute" unicode="&#xd3;" horiz-adv-x="765" 
d="M544 872l-169 -144h-57l148 144h78zM382 -12q-146 0 -238.5 98t-92.5 247t92.5 247t238.5 98t239 -98t93 -247t-93 -247t-239 -98zM382 62q110 0 178 76.5t68 194.5t-68 194.5t-178 76.5q-111 0 -178 -76t-67 -195q0 -118 67 -194.5t178 -76.5z" />
    <glyph glyph-name="Ocircumflex" unicode="&#xd4;" horiz-adv-x="765" 
d="M517 728h-51l-83 106l-80 -106h-51l95 144h72zM382 -12q-146 0 -238.5 98t-92.5 247t92.5 247t238.5 98t239 -98t93 -247t-93 -247t-239 -98zM382 62q110 0 178 76.5t68 194.5t-68 194.5t-178 76.5q-111 0 -178 -76t-67 -195q0 -118 67 -194.5t178 -76.5z" />
    <glyph glyph-name="Otilde" unicode="&#xd5;" horiz-adv-x="765" 
d="M442 726q-24 0 -42.5 14.5t-28 31.5t-23 31.5t-29.5 14.5q-21 0 -34.5 -21.5t-13.5 -64.5h-45q0 60 25.5 97t71.5 37q24 0 42.5 -14.5t28 -31.5t23 -31.5t29.5 -14.5q21 0 34.5 21.5t13.5 64.5h45q0 -60 -25.5 -97t-71.5 -37zM382 -12q-146 0 -238.5 98t-92.5 247
t92.5 247t238.5 98t239 -98t93 -247t-93 -247t-239 -98zM382 62q110 0 178 76.5t68 194.5t-68 194.5t-178 76.5q-111 0 -178 -76t-67 -195q0 -118 67 -194.5t178 -76.5z" />
    <glyph glyph-name="Odieresis" unicode="&#xd6;" horiz-adv-x="765" 
d="M532 773q0 -19 -14 -32.5t-33 -13.5t-32.5 13.5t-13.5 32.5t13.5 32.5t32.5 13.5q20 0 33.5 -13.5t13.5 -32.5zM325 773q0 -19 -13.5 -32.5t-32.5 -13.5t-33 13.5t-14 32.5t13.5 32.5t33.5 13.5q19 0 32.5 -13.5t13.5 -32.5zM382 -12q-146 0 -238.5 98t-92.5 247
t92.5 247t238.5 98t239 -98t93 -247t-93 -247t-239 -98zM382 62q110 0 178 76.5t68 194.5t-68 194.5t-178 76.5q-111 0 -178 -76t-67 -195q0 -118 67 -194.5t178 -76.5z" />
    <glyph glyph-name="multiply" unicode="&#xd7;" horiz-adv-x="499" 
d="M398 148l-149 149l-148 -149l-37 37l149 149l-149 149l37 37l148 -149l149 149l37 -37l-148 -149l148 -149z" />
    <glyph glyph-name="Oslash" unicode="&#xd8;" horiz-adv-x="765" 
d="M382 -12q-96 0 -172 45l-22 -33h-67l44 65q-114 98 -114 268q0 149 92.5 247t238.5 98q92 0 167 -42l21 31h67l-42 -63q56 -47 87.5 -117.5t31.5 -153.5q0 -149 -93 -247t-239 -98zM382 62q110 0 178 76.5t68 194.5q0 129 -78 205l-297 -441q55 -35 129 -35zM137 333
q0 -125 73 -201l296 440q-56 32 -124 32q-111 0 -178 -76t-67 -195z" />
    <glyph glyph-name="Ugrave" unicode="&#xd9;" horiz-adv-x="701" 
d="M418 728h-57l-169 144h78zM350 -12q-132 0 -202 72.5t-70 198.5v408h84v-406q0 -93 48.5 -146t139.5 -53t140 53t49 146v406h84v-407q0 -127 -70 -199.5t-203 -72.5z" />
    <glyph glyph-name="Uacute" unicode="&#xda;" horiz-adv-x="701" 
d="M510 872l-169 -144h-57l148 144h78zM350 -12q-132 0 -202 72.5t-70 198.5v408h84v-406q0 -93 48.5 -146t139.5 -53t140 53t49 146v406h84v-407q0 -127 -70 -199.5t-203 -72.5z" />
    <glyph glyph-name="Ucircumflex" unicode="&#xdb;" horiz-adv-x="701" 
d="M488 728h-51l-83 106l-80 -106h-51l95 144h72zM350 -12q-132 0 -202 72.5t-70 198.5v408h84v-406q0 -93 48.5 -146t139.5 -53t140 53t49 146v406h84v-407q0 -127 -70 -199.5t-203 -72.5z" />
    <glyph glyph-name="Udieresis" unicode="&#xdc;" horiz-adv-x="701" 
d="M501 773q0 -19 -14 -32.5t-33 -13.5t-32.5 13.5t-13.5 32.5t13.5 32.5t32.5 13.5q20 0 33.5 -13.5t13.5 -32.5zM294 773q0 -19 -13.5 -32.5t-32.5 -13.5t-33 13.5t-14 32.5t13.5 32.5t33.5 13.5q19 0 32.5 -13.5t13.5 -32.5zM350 -12q-132 0 -202 72.5t-70 198.5v408h84
v-406q0 -93 48.5 -146t139.5 -53t140 53t49 146v406h84v-407q0 -127 -70 -199.5t-203 -72.5z" />
    <glyph glyph-name="Yacute" unicode="&#xdd;" horiz-adv-x="626" 
d="M477 872l-169 -144h-57l148 144h78zM355 0h-83v282l-263 385h97l207 -310l207 310h97l-262 -385v-282z" />
    <glyph glyph-name="Thorn" unicode="&#xde;" horiz-adv-x="587" 
d="M161 0h-83v667h83v-119h185q97 0 153 -58t56 -144q0 -85 -56.5 -142.5t-152.5 -57.5h-185v-146zM336 220q59 0 96 35t37 91t-37 92t-96 36h-175v-254h175z" />
    <glyph glyph-name="germandbls" unicode="&#xdf;" horiz-adv-x="597" 
d="M578 135q0 -62 -48.5 -104.5t-137.5 -42.5q-66 0 -107 20t-79 58l38 52q22 -30 61 -49t87 -19q55 0 84 24t29 59q0 32 -29.5 50.5t-71.5 28.5t-84.5 23t-72 43t-29.5 79q0 36 23 65t50 44t50 35.5t23 41.5q0 31 -30 49t-69 18q-49 0 -81.5 -30.5t-32.5 -80.5v-499h-75
v499q0 76 52 127t138 51q72 0 123.5 -34.5t51.5 -91.5q0 -30 -15.5 -53.5t-37.5 -38.5t-44 -29t-37.5 -32.5t-15.5 -40.5q0 -28 29.5 -44t72 -25.5t84.5 -22.5t71.5 -45.5t29.5 -84.5z" />
    <glyph glyph-name="agrave" unicode="&#xe0;" horiz-adv-x="575" 
d="M361 556h-57l-169 144h78zM500 0h-75v72q-62 -84 -163 -84q-96 0 -155.5 68.5t-59.5 184.5q0 115 60 184.5t155 69.5q100 0 163 -85v73h75v-483zM281 55q43 0 83.5 22.5t60.5 54.5v218q-20 33 -60.5 55.5t-83.5 22.5q-72 0 -114 -52.5t-42 -134.5t42 -134t114 -52z" />
    <glyph glyph-name="aacute" unicode="&#xe1;" horiz-adv-x="575" 
d="M454 700l-169 -144h-57l148 144h78zM500 0h-75v72q-62 -84 -163 -84q-96 0 -155.5 68.5t-59.5 184.5q0 115 60 184.5t155 69.5q100 0 163 -85v73h75v-483zM281 55q43 0 83.5 22.5t60.5 54.5v218q-20 33 -60.5 55.5t-83.5 22.5q-72 0 -114 -52.5t-42 -134.5t42 -134
t114 -52z" />
    <glyph glyph-name="acircumflex" unicode="&#xe2;" horiz-adv-x="575" 
d="M426 556h-51l-83 106l-80 -106h-51l95 144h72zM500 0h-75v72q-62 -84 -163 -84q-96 0 -155.5 68.5t-59.5 184.5q0 115 60 184.5t155 69.5q100 0 163 -85v73h75v-483zM281 55q43 0 83.5 22.5t60.5 54.5v218q-20 33 -60.5 55.5t-83.5 22.5q-72 0 -114 -52.5t-42 -134.5
t42 -134t114 -52z" />
    <glyph glyph-name="atilde" unicode="&#xe3;" horiz-adv-x="575" 
d="M353 554q-24 0 -42.5 14.5t-28 31.5t-23 31.5t-29.5 14.5q-21 0 -34.5 -21.5t-13.5 -64.5h-45q0 60 25.5 97t71.5 37q24 0 42.5 -14.5t28 -31.5t23 -31.5t29.5 -14.5q21 0 34.5 21.5t13.5 64.5h45q0 -60 -25.5 -97t-71.5 -37zM500 0h-75v72q-62 -84 -163 -84
q-96 0 -155.5 68.5t-59.5 184.5q0 115 60 184.5t155 69.5q100 0 163 -85v73h75v-483zM281 55q43 0 83.5 22.5t60.5 54.5v218q-20 33 -60.5 55.5t-83.5 22.5q-72 0 -114 -52.5t-42 -134.5t42 -134t114 -52z" />
    <glyph glyph-name="adieresis" unicode="&#xe4;" horiz-adv-x="575" 
d="M443 604q0 -19 -14 -32.5t-33 -13.5t-32.5 13.5t-13.5 32.5t13.5 32.5t32.5 13.5q20 0 33.5 -13.5t13.5 -32.5zM236 604q0 -19 -13.5 -32.5t-32.5 -13.5t-33 13.5t-14 32.5t13.5 32.5t33.5 13.5q19 0 32.5 -13.5t13.5 -32.5zM500 0h-75v72q-62 -84 -163 -84
q-96 0 -155.5 68.5t-59.5 184.5q0 115 60 184.5t155 69.5q100 0 163 -85v73h75v-483zM281 55q43 0 83.5 22.5t60.5 54.5v218q-20 33 -60.5 55.5t-83.5 22.5q-72 0 -114 -52.5t-42 -134.5t42 -134t114 -52z" />
    <glyph glyph-name="aring" unicode="&#xe5;" horiz-adv-x="575" 
d="M291 554q-41 0 -70 29t-29 70t29 70t70 29q40 0 68.5 -29t28.5 -70t-28.5 -70t-68.5 -29zM291 594q24 0 41 17.5t17 41.5t-17 41.5t-41 17.5q-25 0 -42 -17.5t-17 -41.5t17 -41.5t42 -17.5zM500 0h-75v72q-62 -84 -163 -84q-96 0 -155.5 68.5t-59.5 184.5q0 115 60 184.5
t155 69.5q100 0 163 -85v73h75v-483zM281 55q43 0 83.5 22.5t60.5 54.5v218q-20 33 -60.5 55.5t-83.5 22.5q-72 0 -114 -52.5t-42 -134.5t42 -134t114 -52z" />
    <glyph glyph-name="ae" unicode="&#xe6;" horiz-adv-x="936" 
d="M500 0h-75v72q-62 -84 -163 -84q-96 0 -155.5 68.5t-59.5 184.5q0 115 60 184.5t155 69.5q100 0 163 -85v73h75v-94q58 106 176 106q99 0 157 -73.5t58 -185.5v-19h-391q5 -71 51.5 -118t121.5 -47q91 0 150 61l36 -50q-72 -75 -175 -75q-127 0 -184 105v-93zM281 55
q43 0 83.5 22.5t60.5 54.5v218q-20 33 -60.5 55.5t-83.5 22.5q-72 0 -114 -52.5t-42 -134.5t42 -134t114 -52zM817 273q-1 61 -42 110.5t-117 49.5q-72 0 -113.5 -49t-44.5 -111h317z" />
    <glyph glyph-name="ccedilla" unicode="&#xe7;" horiz-adv-x="496" 
d="M290 -189q-64 0 -101 30l19 38q36 -29 80 -29q26 0 43.5 11t17.5 31q0 35 -37 35q-24 0 -38 -17l-33 19l22 61q-97 8 -156.5 79t-59.5 173q0 109 67 181t174 72q112 0 177 -84l-50 -45q-45 62 -123 62q-75 0 -121 -52.5t-46 -133.5q0 -82 46 -134.5t121 -52.5
q76 0 123 63l50 -46q-58 -76 -158 -83l-16 -42q14 11 37 11q29 0 47.5 -18.5t18.5 -48.5q0 -36 -29.5 -58t-74.5 -22z" />
    <glyph glyph-name="egrave" unicode="&#xe8;" horiz-adv-x="563" 
d="M294 -12q-109 0 -178 70.5t-69 183.5q0 106 68 179.5t170 73.5q107 0 169.5 -73.5t62.5 -185.5v-19h-390q5 -71 51.5 -119t121.5 -48q90 0 150 62l36 -49q-77 -75 -192 -75zM443 273q-1 61 -42 110.5t-117 49.5q-72 0 -113.5 -49t-44.5 -111h317zM352 556h-57l-169 144
h78z" />
    <glyph glyph-name="eacute" unicode="&#xe9;" horiz-adv-x="563" 
d="M294 -12q-109 0 -178 70.5t-69 183.5q0 106 68 179.5t170 73.5q107 0 169.5 -73.5t62.5 -185.5v-19h-390q5 -71 51.5 -119t121.5 -48q90 0 150 62l36 -49q-77 -75 -192 -75zM443 273q-1 61 -42 110.5t-117 49.5q-72 0 -113.5 -49t-44.5 -111h317zM446 700l-169 -144h-57
l148 144h78z" />
    <glyph glyph-name="ecircumflex" unicode="&#xea;" horiz-adv-x="563" 
d="M294 -12q-109 0 -178 70.5t-69 183.5q0 106 68 179.5t170 73.5q107 0 169.5 -73.5t62.5 -185.5v-19h-390q5 -71 51.5 -119t121.5 -48q90 0 150 62l36 -49q-77 -75 -192 -75zM443 273q-1 61 -42 110.5t-117 49.5q-72 0 -113.5 -49t-44.5 -111h317zM419 556h-51l-83 106
l-80 -106h-51l95 144h72z" />
    <glyph glyph-name="edieresis" unicode="&#xeb;" horiz-adv-x="563" 
d="M294 -12q-109 0 -178 70.5t-69 183.5q0 106 68 179.5t170 73.5q107 0 169.5 -73.5t62.5 -185.5v-19h-390q5 -71 51.5 -119t121.5 -48q90 0 150 62l36 -49q-77 -75 -192 -75zM443 273q-1 61 -42 110.5t-117 49.5q-72 0 -113.5 -49t-44.5 -111h317zM436 604
q0 -19 -14 -32.5t-33 -13.5t-32.5 13.5t-13.5 32.5t13.5 32.5t32.5 13.5q20 0 33.5 -13.5t13.5 -32.5zM229 604q0 -19 -13.5 -32.5t-32.5 -13.5t-33 13.5t-14 32.5t13.5 32.5t33.5 13.5q19 0 32.5 -13.5t13.5 -32.5z" />
    <glyph glyph-name="igrave" unicode="&#xec;" horiz-adv-x="225" 
d="M178 556h-57l-169 144h78zM150 0h-75v483h75v-483z" />
    <glyph glyph-name="iacute" unicode="&#xed;" horiz-adv-x="225" 
d="M273 700l-169 -144h-57l148 144h78zM150 0h-75v483h75v-483z" />
    <glyph glyph-name="icircumflex" unicode="&#xee;" horiz-adv-x="225" 
d="M246 556h-51l-83 106l-80 -106h-51l95 144h72zM150 0h-75v483h75v-483z" />
    <glyph glyph-name="idieresis" unicode="&#xef;" horiz-adv-x="225" 
d="M263 604q0 -19 -14 -32.5t-33 -13.5t-32.5 13.5t-13.5 32.5t13.5 32.5t32.5 13.5q20 0 33.5 -13.5t13.5 -32.5zM56 604q0 -19 -13.5 -32.5t-32.5 -13.5t-33 13.5t-14 32.5t13.5 32.5t33.5 13.5q19 0 32.5 -13.5t13.5 -32.5zM150 0h-75v483h75v-483z" />
    <glyph glyph-name="eth" unicode="&#xf0;" 
d="M122 497l-18 42l118 52l-75 48l41 62q67 -41 112 -76l108 48l17 -41l-86 -38q186 -158 186 -347q0 -114 -65 -186.5t-174 -72.5q-107 0 -173 70t-66 176t62 175.5t158 69.5q98 0 158 -88q-50 90 -160 170zM286 55q74 0 117 52t43 127q0 74 -43 126t-117 52t-117 -52
t-43 -126q0 -75 43 -127t117 -52z" />
    <glyph glyph-name="ntilde" unicode="&#xf1;" horiz-adv-x="552" 
d="M479 0h-74v316q0 61 -28 86.5t-81 25.5q-42 0 -81 -22t-62 -53v-353h-75v483h75v-70q28 34 75 58t98 24q153 0 153 -156v-339zM336 554q-24 0 -42.5 14.5t-28 31.5t-23 31.5t-29.5 14.5q-21 0 -34.5 -21.5t-13.5 -64.5h-45q0 60 25.5 97t71.5 37q24 0 42.5 -14.5
t28 -31.5t23 -31.5t29.5 -14.5q21 0 34.5 21.5t13.5 64.5h45q0 -60 -25.5 -97t-71.5 -37z" />
    <glyph glyph-name="ograve" unicode="&#xf2;" 
d="M286 -12q-108 0 -173.5 73t-65.5 181t65.5 180.5t173.5 72.5t173.5 -72.5t65.5 -180.5t-65.5 -181t-173.5 -73zM286 55q74 0 117 54.5t43 132.5t-43 132t-117 54t-117 -54t-43 -132t43 -132.5t117 -54.5zM352 556h-57l-169 144h78z" />
    <glyph glyph-name="oacute" unicode="&#xf3;" 
d="M286 -12q-108 0 -173.5 73t-65.5 181t65.5 180.5t173.5 72.5t173.5 -72.5t65.5 -180.5t-65.5 -181t-173.5 -73zM286 55q74 0 117 54.5t43 132.5t-43 132t-117 54t-117 -54t-43 -132t43 -132.5t117 -54.5zM446 700l-169 -144h-57l148 144h78z" />
    <glyph glyph-name="ocircumflex" unicode="&#xf4;" 
d="M286 -12q-108 0 -173.5 73t-65.5 181t65.5 180.5t173.5 72.5t173.5 -72.5t65.5 -180.5t-65.5 -181t-173.5 -73zM286 55q74 0 117 54.5t43 132.5t-43 132t-117 54t-117 -54t-43 -132t43 -132.5t117 -54.5zM420 556h-51l-83 106l-80 -106h-51l95 144h72z" />
    <glyph glyph-name="otilde" unicode="&#xf5;" 
d="M286 -12q-108 0 -173.5 73t-65.5 181t65.5 180.5t173.5 72.5t173.5 -72.5t65.5 -180.5t-65.5 -181t-173.5 -73zM286 55q74 0 117 54.5t43 132.5t-43 132t-117 54t-117 -54t-43 -132t43 -132.5t117 -54.5zM346 554q-24 0 -42.5 14.5t-28 31.5t-23 31.5t-29.5 14.5
q-21 0 -34.5 -21.5t-13.5 -64.5h-45q0 60 25.5 97t71.5 37q24 0 42.5 -14.5t28 -31.5t23 -31.5t29.5 -14.5q21 0 34.5 21.5t13.5 64.5h45q0 -60 -25.5 -97t-71.5 -37z" />
    <glyph glyph-name="odieresis" unicode="&#xf6;" 
d="M286 -12q-108 0 -173.5 73t-65.5 181t65.5 180.5t173.5 72.5t173.5 -72.5t65.5 -180.5t-65.5 -181t-173.5 -73zM286 55q74 0 117 54.5t43 132.5t-43 132t-117 54t-117 -54t-43 -132t43 -132.5t117 -54.5zM436 604q0 -19 -14 -32.5t-33 -13.5t-32.5 13.5t-13.5 32.5
t13.5 32.5t32.5 13.5q20 0 33.5 -13.5t13.5 -32.5zM229 604q0 -19 -13.5 -32.5t-32.5 -13.5t-33 13.5t-14 32.5t13.5 32.5t33.5 13.5q19 0 32.5 -13.5t13.5 -32.5z" />
    <glyph glyph-name="divide" unicode="&#xf7;" horiz-adv-x="511" 
d="M302 527q0 -19 -13.5 -33t-32.5 -14t-32.5 14t-13.5 33t13.5 32t32.5 13t32.5 -13t13.5 -32zM482 311h-453v52h453v-52zM302 144q0 -19 -13.5 -32.5t-32.5 -13.5t-32.5 13.5t-13.5 32.5t13.5 32.5t32.5 13.5t32.5 -13.5t13.5 -32.5z" />
    <glyph glyph-name="oslash" unicode="&#xf8;" 
d="M118 0h-54l48 61q-65 71 -65 181q0 108 65.5 180.5t173.5 72.5q79 0 137 -41l23 29h55l-45 -57q69 -72 69 -184q0 -108 -65.5 -181t-173.5 -73q-83 0 -142 45zM286 55q74 0 117 54.5t43 132.5q0 74 -38 124l-220 -277q40 -34 98 -34zM126 242q0 -72 34 -121l218 277
q-38 30 -92 30q-74 0 -117 -54t-43 -132z" />
    <glyph glyph-name="ugrave" unicode="&#xf9;" horiz-adv-x="551" 
d="M476 0h-75v68q-30 -34 -75.5 -57t-96.5 -23q-154 0 -154 154v341h75v-318q0 -60 28 -85t81 -25q42 0 81 21t61 52v355h75v-483zM344 556h-57l-169 144h78z" />
    <glyph glyph-name="uacute" unicode="&#xfa;" horiz-adv-x="551" 
d="M476 0h-75v68q-30 -34 -75.5 -57t-96.5 -23q-154 0 -154 154v341h75v-318q0 -60 28 -85t81 -25q42 0 81 21t61 52v355h75v-483zM437 700l-169 -144h-57l148 144h78z" />
    <glyph glyph-name="ucircumflex" unicode="&#xfb;" horiz-adv-x="551" 
d="M476 0h-75v68q-30 -34 -75.5 -57t-96.5 -23q-154 0 -154 154v341h75v-318q0 -60 28 -85t81 -25q42 0 81 21t61 52v355h75v-483zM409 556h-51l-83 106l-80 -106h-51l95 144h72z" />
    <glyph glyph-name="udieresis" unicode="&#xfc;" horiz-adv-x="551" 
d="M476 0h-75v68q-30 -34 -75.5 -57t-96.5 -23q-154 0 -154 154v341h75v-318q0 -60 28 -85t81 -25q42 0 81 21t61 52v355h75v-483zM429 604q0 -19 -14 -32.5t-33 -13.5t-32.5 13.5t-13.5 32.5t13.5 32.5t32.5 13.5q20 0 33.5 -13.5t13.5 -32.5zM222 604q0 -19 -13.5 -32.5
t-32.5 -13.5t-33 13.5t-14 32.5t13.5 32.5t33.5 13.5q19 0 32.5 -13.5t13.5 -32.5z" />
    <glyph glyph-name="yacute" unicode="&#xfd;" horiz-adv-x="551" 
d="M435 700l-169 -144h-57l148 144h78zM255 -196q-112 0 -185 73l38 54q52 -65 147 -65q68 0 107 37t39 103v72q-30 -34 -75.5 -57t-96.5 -23q-154 0 -154 154v331h75v-308q0 -61 28 -86t81 -25q41 0 80.5 21.5t61.5 51.5v346h75v-477q0 -98 -63 -150t-158 -52z" />
    <glyph glyph-name="thorn" unicode="&#xfe;" 
d="M313 -12q-99 0 -163 85v-257h-75v851h75v-256q27 38 70 61t93 23q96 0 155.5 -68.5t59.5 -184.5t-59.5 -185t-155.5 -69zM294 55q71 0 113 52.5t42 134.5t-42 134t-113 52q-43 0 -83.5 -22.5t-60.5 -54.5v-218q20 -33 60.5 -55.5t83.5 -22.5z" />
    <glyph glyph-name="ydieresis" unicode="&#xff;" horiz-adv-x="551" 
d="M422 604q0 -19 -14 -32.5t-33 -13.5t-32.5 13.5t-13.5 32.5t13.5 32.5t32.5 13.5q20 0 33.5 -13.5t13.5 -32.5zM215 604q0 -19 -13.5 -32.5t-32.5 -13.5t-33 13.5t-14 32.5t13.5 32.5t33.5 13.5q19 0 32.5 -13.5t13.5 -32.5zM255 -196q-112 0 -185 73l38 54
q52 -65 147 -65q68 0 107 37t39 103v72q-30 -34 -75.5 -57t-96.5 -23q-154 0 -154 154v331h75v-308q0 -61 28 -86t81 -25q41 0 80.5 21.5t61.5 51.5v346h75v-477q0 -98 -63 -150t-158 -52z" />
    <glyph glyph-name="dotlessi" unicode="&#x131;" horiz-adv-x="225" 
d="M150 0h-75v483h75v-483z" />
    <glyph glyph-name="Lslash" unicode="&#x141;" horiz-adv-x="524" 
d="M10 221v72l88 51v323h83v-275l96 55v-72l-96 -55v-246h310v-74h-393v272z" />
    <glyph glyph-name="lslash" unicode="&#x142;" horiz-adv-x="299" 
d="M10 228v60l95 54v325h75v-282l96 55v-60l-96 -55v-208q0 -28 12.5 -45t36.5 -17q33 0 50 21l23 -57q-34 -31 -90 -31q-53 0 -80 29t-27 84v181z" />
    <glyph glyph-name="OE" unicode="&#x152;" horiz-adv-x="1105" 
d="M1051 0h-437v121q-36 -64 -101 -98.5t-138 -34.5q-144 0 -234 98t-90 247t90 246.5t234 97.5q73 0 138 -34t101 -97v121h437v-74h-354v-215h347v-74h-347v-230h354v-74zM614 224v219q-29 78 -89.5 119t-139.5 41q-113 0 -180.5 -75.5t-67.5 -194.5q0 -118 67.5 -194.5
t180.5 -76.5q78 0 139 41.5t90 120.5z" />
    <glyph glyph-name="oe" unicode="&#x153;" horiz-adv-x="962" 
d="M916 217h-390q5 -71 51.5 -119t121.5 -48q90 0 150 62l36 -49q-77 -75 -192 -75q-83 0 -133 41.5t-75 96.5q-62 -138 -199 -138q-108 0 -173.5 73t-65.5 181t65.5 180.5t173.5 72.5q42 0 78 -14t59.5 -36.5t38 -43.5t24.5 -44q22 52 71.5 95t126.5 43q107 0 169.5 -73.5
t62.5 -185.5v-19zM525 273h318q-2 61 -43 110.5t-116 49.5q-72 0 -114 -49t-45 -111zM446 242q0 79 -43.5 132.5t-116.5 53.5t-116.5 -53.5t-43.5 -132.5q0 -80 43.5 -134t116.5 -54t116.5 54t43.5 134z" />
    <glyph glyph-name="Scaron" unicode="&#x160;" horiz-adv-x="586" 
d="M323 728h-72l-98 144h51l83 -106l80 106h51zM294 -12q-162 0 -256 106l50 64q83 -96 209 -96q81 0 119 35t38 81q0 47 -40.5 75t-99 42.5t-116.5 32t-98.5 58t-40.5 106.5q0 82 65 134t165 52q147 0 236 -94l-50 -61q-71 80 -193 80q-60 0 -98.5 -29.5t-38.5 -76.5
q0 -35 29.5 -58t73 -34t95 -27.5t95 -35t73 -59.5t29.5 -99q0 -81 -60.5 -138.5t-185.5 -57.5z" />
    <glyph glyph-name="scaron" unicode="&#x161;" horiz-adv-x="465" 
d="M229 -12q-122 0 -195 76l38 54q25 -29 68.5 -49t90.5 -20q54 0 84.5 23t30.5 60q0 32 -31 50.5t-75 28t-87.5 22t-74.5 43t-31 80.5q0 59 48 99t131 40q111 0 179 -70l-35 -52q-51 61 -144 61q-49 0 -78 -21.5t-29 -54.5q0 -24 22 -40t55.5 -23t72 -18t72 -24.5t55.5 -44
t22 -74.5q0 -64 -49.5 -105t-139.5 -41zM266 556h-72l-98 144h51l83 -106l80 106h51z" />
    <glyph glyph-name="Ydieresis" unicode="&#x178;" horiz-adv-x="626" 
d="M466 773q0 -19 -14 -32.5t-33 -13.5t-32.5 13.5t-13.5 32.5t13.5 32.5t32.5 13.5q20 0 33.5 -13.5t13.5 -32.5zM259 773q0 -19 -13.5 -32.5t-32.5 -13.5t-33 13.5t-14 32.5t13.5 32.5t33.5 13.5q19 0 32.5 -13.5t13.5 -32.5zM355 0h-83v282l-263 385h97l207 -310l207 310
h97l-262 -385v-282z" />
    <glyph glyph-name="Zcaron" unicode="&#x17d;" horiz-adv-x="585" 
d="M330 728h-72l-98 144h51l83 -106l80 106h51zM537 0h-489v69l375 524h-375v74h482v-69l-376 -524h383v-74z" />
    <glyph glyph-name="zcaron" unicode="&#x17e;" horiz-adv-x="472" 
d="M420 0h-368v59l266 358h-266v66h364v-57l-268 -360h272v-66zM267 556h-72l-98 144h51l83 -106l80 106h51z" />
    <glyph glyph-name="florin" unicode="&#x192;" horiz-adv-x="432" 
d="M109 -161h-84l92 415h-68v68h82l46 204q15 70 62 110.5t112 40.5q61 0 94 -36l-37 -61q-17 23 -49 23q-37 0 -64 -24.5t-37 -67.5l-42 -189h139v-68h-153z" />
    <glyph glyph-name="circumflex" unicode="&#x2c6;" horiz-adv-x="265" 
d="M265 556h-51l-83 106l-80 -106h-51l95 144h72z" />
    <glyph glyph-name="caron" unicode="&#x2c7;" horiz-adv-x="265" 
d="M170 556h-72l-98 144h51l83 -106l80 106h51z" />
    <glyph glyph-name="breve" unicode="&#x2d8;" horiz-adv-x="351" 
d="M351 651q-65 -88 -175 -88q-109 0 -176 88l38 32q51 -72 138 -72q88 0 139 72z" />
    <glyph glyph-name="dotaccent" unicode="&#x2d9;" horiz-adv-x="112" 
d="M56 573q-19 0 -33 14t-14 33t14 33t33 14q20 0 33.5 -13.5t13.5 -33.5t-13.5 -33.5t-33.5 -13.5z" />
    <glyph glyph-name="ring" unicode="&#x2da;" horiz-adv-x="196" 
d="M99 554q-41 0 -70 29t-29 70t29 70t70 29q40 0 68.5 -29t28.5 -70t-28.5 -70t-68.5 -29zM99 594q24 0 41 17.5t17 41.5t-17 41.5t-41 17.5q-25 0 -42 -17.5t-17 -41.5t17 -41.5t42 -17.5z" />
    <glyph glyph-name="ogonek" unicode="&#x2db;" horiz-adv-x="178" 
d="M141 -105l37 -21q-26 -60 -88 -60q-38 0 -64 22t-26 65q0 37 24 69t64 53l33 -23q-76 -38 -76 -97q0 -50 45 -50q37 0 51 42z" />
    <glyph glyph-name="tilde" unicode="&#x2dc;" horiz-adv-x="313" 
d="M216 554q-24 0 -42.5 14.5t-28 31.5t-23 31.5t-29.5 14.5q-21 0 -34.5 -21.5t-13.5 -64.5h-45q0 60 25.5 97t71.5 37q24 0 42.5 -14.5t28 -31.5t23 -31.5t29.5 -14.5q21 0 34.5 21.5t13.5 64.5h45q0 -60 -25.5 -97t-71.5 -37z" />
    <glyph glyph-name="hungarumlaut" unicode="&#x2dd;" horiz-adv-x="305" 
d="M163 700l-115 -144h-48l94 144h69zM305 700l-115 -144h-48l94 144h69z" />
    <glyph glyph-name="pi" unicode="&#x3c0;" horiz-adv-x="561" 
d="M452 0h-76v433h-191v-433h-76v433h-77v67h497v-67h-77v-433z" />
    <glyph glyph-name="endash" unicode="&#x2013;" horiz-adv-x="593" 
d="M563 209h-533v66h533v-66z" />
    <glyph glyph-name="emdash" unicode="&#x2014;" horiz-adv-x="833" 
d="M803 209h-773v66h773v-66z" />
    <glyph glyph-name="quoteleft" unicode="&#x2018;" horiz-adv-x="230" 
d="M48 527q0 44 22.5 84.5t57.5 65.5l38 -30q-24 -16 -43 -42.5t-22 -50.5q1 0 6 1t8 1q20 0 34 -14.5t14 -36.5q0 -23 -15.5 -38.5t-37.5 -15.5q-26 0 -44 20.5t-18 55.5z" />
    <glyph glyph-name="quoteright" unicode="&#x2019;" horiz-adv-x="230" 
d="M176 601q0 -44 -22.5 -84.5t-58.5 -66.5l-38 31q24 16 43 42.5t22 50.5q-4 -2 -14 -2q-20 0 -34 14.5t-14 36.5t15.5 38t37.5 16q27 0 45 -20.5t18 -55.5z" />
    <glyph glyph-name="quotesinglbase" unicode="&#x201a;" horiz-adv-x="230" 
d="M176 24q0 -44 -22.5 -84.5t-58.5 -66.5l-38 31q25 16 43.5 42.5t21.5 50.5q-4 -2 -14 -2q-20 0 -34 14.5t-14 36.5t15.5 38t37.5 16q27 0 45 -20.5t18 -55.5z" />
    <glyph glyph-name="quotedblleft" unicode="&#x201c;" horiz-adv-x="390" 
d="M54 527q0 44 22.5 84.5t58.5 65.5l37 -30q-24 -16 -42.5 -42.5t-21.5 -50.5l5 1q5 1 8 1q21 0 35 -14.5t14 -36.5q0 -23 -16 -38.5t-38 -15.5q-26 0 -44 20.5t-18 55.5zM214 527q0 44 22.5 84.5t58.5 65.5l37 -30q-24 -16 -42.5 -42.5t-21.5 -50.5q1 0 6 1t7 1
q21 0 35 -14.5t14 -36.5q0 -23 -16 -38.5t-38 -15.5q-26 0 -44 20.5t-18 55.5z" />
    <glyph glyph-name="quotedblright" unicode="&#x201d;" horiz-adv-x="390" 
d="M336 601q0 -44 -22.5 -84.5t-58.5 -66.5l-37 31q24 16 42.5 42.5t21.5 50.5q-2 -2 -13 -2q-21 0 -35 14.5t-14 36.5t16 38t38 16q26 0 44 -20.5t18 -55.5zM176 601q0 -44 -22.5 -84.5t-58.5 -66.5l-38 31q24 16 43 42.5t22 50.5q-4 -2 -14 -2q-20 0 -34 14.5t-14 36.5
t15.5 38t37.5 16q27 0 45 -20.5t18 -55.5z" />
    <glyph glyph-name="quotedblbase" unicode="&#x201e;" horiz-adv-x="390" 
d="M176 24q0 -44 -22.5 -84.5t-58.5 -66.5l-38 31q25 16 43.5 42.5t21.5 50.5q-4 -2 -14 -2q-20 0 -34 14.5t-14 36.5t15.5 38t37.5 16q27 0 45 -20.5t18 -55.5zM336 24q0 -44 -22.5 -84.5t-58.5 -66.5l-37 31q24 16 42.5 42.5t21.5 50.5q-2 -2 -13 -2q-21 0 -35 14.5
t-14 36.5t16 38t38 16q26 0 44 -20.5t18 -55.5z" />
    <glyph glyph-name="dagger" unicode="&#x2020;" horiz-adv-x="263" 
d="M240 531l-89 4l4 -208h-48l5 208l-89 -4v43l89 -3l-5 106h48l-4 -106l89 3v-43z" />
    <glyph glyph-name="daggerdbl" unicode="&#x2021;" horiz-adv-x="263" 
d="M240 574v-43l-89 4v-213l89 4v-43l-89 3l4 -106h-48l4 106l-88 -3v43l88 -4v213l-88 -4v43l88 -3l-4 106h48l-4 -106z" />
    <glyph glyph-name="bullet" unicode="&#x2022;" horiz-adv-x="358" 
d="M288 242q0 -44 -32 -75.5t-76 -31.5t-76 31.5t-32 75.5t32 76t76 32t76 -32t32 -76z" />
    <glyph glyph-name="ellipsis" unicode="&#x2026;" horiz-adv-x="691" 
d="M170 45q0 -22 -16.5 -38.5t-38.5 -16.5t-38.5 16.5t-16.5 38.5q0 23 16 39t39 16t39 -16t16 -39zM400 45q0 -22 -16.5 -38.5t-38.5 -16.5t-38.5 16.5t-16.5 38.5q0 23 16 39t39 16t39 -16t16 -39zM630 45q0 -22 -16 -38.5t-38 -16.5t-38.5 16.5t-16.5 38.5q0 23 16.5 39
t38.5 16t38 -16t16 -39z" />
    <glyph glyph-name="perthousand" unicode="&#x2030;" horiz-adv-x="1084" 
d="M353 511q0 -70 -45 -116.5t-116 -46.5t-116 46.5t-45 116.5q0 72 45 119t116 47t116 -47t45 -119zM610 667l-427 -667h-55l426 667h56zM700 152q0 -71 -44.5 -117.5t-115.5 -46.5t-116 47t-45 117q0 71 45 118t116 47q70 0 115 -47t45 -118zM293 511q0 52 -28 85.5
t-73 33.5q-44 0 -72.5 -33.5t-28.5 -85.5q0 -49 28.5 -82.5t72.5 -33.5t72.5 33.5t28.5 82.5zM641 152q0 51 -28 84.5t-73 33.5t-73.5 -33.5t-28.5 -84.5q0 -50 28.5 -83.5t73.5 -33.5q44 0 72.5 33.5t28.5 83.5zM1053 152q0 -70 -45 -117t-116 -47t-116 47t-45 117
q0 71 45 118t116 47t116 -47t45 -118zM993 152q0 51 -28 84.5t-73 33.5t-73 -33.5t-28 -84.5q0 -50 28.5 -83.5t72.5 -33.5t72.5 33.5t28.5 83.5z" />
    <glyph glyph-name="guilsinglleft" unicode="&#x2039;" horiz-adv-x="295" 
d="M265 63h-75l-160 180l160 177h75l-160 -177z" />
    <glyph glyph-name="guilsinglright" unicode="&#x203a;" horiz-adv-x="295" 
d="M265 243l-160 -180h-75l160 180l-160 177h75z" />
    <glyph glyph-name="fraction" unicode="&#x2044;" horiz-adv-x="139" 
d="M310 667l-427 -667h-54l426 667h55z" />
    <glyph glyph-name="Euro" unicode="&#x20ac;" horiz-adv-x="695" 
d="M416 -12q-121 0 -211.5 67.5t-119.5 181.5h-54v52h44q-2 28 -2 44t2 46h-44v53h55q30 112 120 179t210 67q161 0 253 -132l-69 -39q-29 44 -78.5 70.5t-105.5 26.5q-85 0 -150 -46.5t-92 -125.5h302v-53h-314q-3 -22 -3 -46q0 -23 3 -44h314v-52h-302q26 -80 91.5 -127.5
t150.5 -47.5q56 0 105.5 27t78.5 70l70 -38q-97 -133 -254 -133z" />
    <glyph glyph-name="trademark" unicode="&#x2122;" horiz-adv-x="454" 
d="M419 447h-28v182l-75 -182h-8l-75 182v-182h-28v220h43l64 -160l64 160h43v-220zM169 641h-62v-194h-28v194h-62v26h152v-26z" />
    <glyph glyph-name="Omega" unicode="&#x2126;" horiz-adv-x="765" 
d="M69 0v74h135q-153 100 -153 274q0 145 92 237.5t239 92.5q148 0 240 -92.5t92 -237.5q0 -92 -42.5 -161t-110.5 -113h135v-74h-240v74q71 18 121.5 87.5t50.5 172.5q0 115 -65.5 192t-180.5 77q-114 0 -179.5 -77t-65.5 -192q0 -103 50.5 -172.5t121.5 -87.5v-74h-240z
" />
    <glyph glyph-name="partialdiff" unicode="&#x2202;" 
d="M286 -12q-108 0 -173.5 70.5t-65.5 175.5q0 104 62 174.5t158 70.5q99 0 155 -82q-30 68 -94.5 130.5t-154.5 106.5l56 47q123 -65 209.5 -179t86.5 -253q0 -115 -65 -188t-174 -73zM286 55q74 0 117 51.5t43 127.5q0 75 -43 126.5t-117 51.5t-117 -51.5t-43 -126.5
q0 -76 43 -127.5t117 -51.5z" />
    <glyph glyph-name="Delta" unicode="&#x2206;" horiz-adv-x="658" 
d="M649 0h-640l269 667h103zM530 74l-201 508l-201 -508h402z" />
    <glyph glyph-name="product" unicode="&#x220f;" horiz-adv-x="708" 
d="M566 -90h-83v683h-259v-683h-83v683h-109v74h644v-74h-110v-683z" />
    <glyph glyph-name="summation" unicode="&#x2211;" horiz-adv-x="576" 
d="M158 593l228 -294l-232 -315h368v-74h-468v74l231 314l-230 296v73h467v-74h-364z" />
    <glyph glyph-name="minus" unicode="&#x2212;" horiz-adv-x="499" 
d="M470 308h-441v52h441v-52z" />
    <glyph glyph-name="radical" unicode="&#x221a;" horiz-adv-x="725" 
d="M427 0h-58l-130 327l-155 -61l-18 50l206 79l127 -317l235 589h59z" />
    <glyph glyph-name="infinity" unicode="&#x221e;" horiz-adv-x="656" 
d="M184 170q-75 0 -115 49.5t-40 115.5q0 67 39.5 116.5t115.5 49.5q47 0 84.5 -31t59.5 -79q22 48 59.5 79t85.5 31q76 0 115 -49t39 -117q0 -66 -39.5 -115.5t-114.5 -49.5q-48 0 -85.5 31t-59.5 79q-22 -48 -59.5 -79t-84.5 -31zM468 223q48 0 75.5 31.5t27.5 80.5
q0 50 -27.5 81.5t-75.5 31.5q-72 0 -115 -113q43 -112 115 -112zM189 223q72 0 115 112q-18 48 -47 80.5t-68 32.5q-48 0 -76 -31.5t-28 -81.5q0 -49 28 -80.5t76 -31.5z" />
    <glyph glyph-name="integral" unicode="&#x222b;" horiz-adv-x="348" 
d="M78 -100h-61v55h61q27 0 47 23t20 57v598q0 60 37.5 97.5t87.5 37.5h61v-55h-61q-28 0 -47.5 -22.5t-19.5 -56.5v-600q0 -59 -37.5 -96.5t-87.5 -37.5z" />
    <glyph glyph-name="approxequal" unicode="&#x2248;" horiz-adv-x="499" 
d="M29 211v59q47 -33 110 -33q47 0 105 29t115 29q60 0 111 -27v-59q-49 34 -111 34q-47 0 -105 -29.5t-115 -29.5q-61 0 -110 27zM29 400v59q47 -33 110 -33q47 0 105 29t115 29q60 0 111 -27v-59q-47 33 -111 33q-47 0 -105 -29t-115 -29q-61 0 -110 27z" />
    <glyph glyph-name="notequal" unicode="&#x2260;" horiz-adv-x="499" 
d="M123 93h-54l75 118h-115v53h148l89 140h-237v53h271l75 117h55l-75 -117h115v-53h-149l-89 -140h238v-53h-272z" />
    <glyph glyph-name="lessequal" unicode="&#x2264;" horiz-adv-x="499" 
d="M470 99l-441 218v53l441 219v-63l-377 -183l377 -181v-63zM470 0h-441v53h441v-53z" />
    <glyph glyph-name="greaterequal" unicode="&#x2265;" horiz-adv-x="499" 
d="M470 317l-441 -218v63l376 181l-376 183v63l441 -219v-53zM469 0h-441v53h441v-53z" />
    <glyph glyph-name="lozenge" unicode="&#x25ca;" horiz-adv-x="375" 
d="M198 0h-21l-158 334l158 333h21l158 -333zM188 41l132 293l-133 292l-132 -292z" />
    <glyph glyph-name="apple" unicode="&#xf8ff;" horiz-adv-x="667" 
d="M226 154v74h-74q-31 0 -51.5 -21.5t-20.5 -52.5t21 -53t52 -22t52 22t21 53zM226 439v75q0 31 -20.5 52.5t-51.5 21.5t-52.5 -21.5t-21.5 -52.5t21.5 -53t52.5 -22h72zM265 265h137v137h-137v-137zM587 154q0 31 -20.5 52.5t-51.5 21.5h-74v-74q0 -31 21 -53t52 -22
t52 22t21 53zM587 514q0 31 -21 52.5t-52 21.5t-52 -21.5t-21 -52.5v-75h74q30 0 51 22t21 53zM625 154q0 -46 -32.5 -79t-78.5 -33t-79 33t-33 79v74h-137v-74q0 -46 -33 -79t-79 -33t-78.5 33t-32.5 79t32.5 78.5t78.5 32.5h73v137h-72q-46 0 -79 33t-33 79t33 78.5
t79 32.5t78.5 -32.5t32.5 -78.5v-75h137v75q0 46 33 78.5t79 32.5t78.5 -32.5t32.5 -78.5t-32.5 -79t-78.5 -33h-73v-137h73q46 0 78.5 -32.5t32.5 -78.5z" />
    <hkern u1="Q" u2="&#x2122;" k="10" />
    <hkern u1="Q" u2="&#x201d;" k="10" />
    <hkern u1="Q" u2="&#x201c;" k="10" />
    <hkern u1="Q" u2="&#x2019;" k="10" />
    <hkern u1="Q" u2="&#x2018;" k="10" />
    <hkern u1="Q" u2="&#xae;" k="10" />
    <hkern u1="Q" u2="&#x27;" k="10" />
    <hkern u1="Q" u2="&#x22;" k="10" />
    <hkern u1="a" u2="&#x178;" k="90" />
    <hkern u1="a" u2="&#xdd;" k="90" />
    <hkern u1="a" u2="Y" k="90" />
    <hkern u1="a" u2="W" k="30" />
    <hkern u1="a" u2="V" k="42" />
    <hkern u1="a" u2="T" k="85" />
    <hkern u1="a" u2="&#x3f;" k="23" />
    <hkern u1="h" u2="&#x178;" k="110" />
    <hkern u1="h" u2="&#xdd;" k="110" />
    <hkern u1="h" u2="Y" k="110" />
    <hkern u1="h" u2="W" k="43" />
    <hkern u1="h" u2="V" k="66" />
    <hkern u1="h" u2="T" k="108" />
    <hkern u1="h" u2="&#x3f;" k="36" />
    <hkern u1="m" u2="&#x178;" k="110" />
    <hkern u1="m" u2="&#xdd;" k="110" />
    <hkern u1="m" u2="Y" k="110" />
    <hkern u1="m" u2="W" k="43" />
    <hkern u1="m" u2="V" k="66" />
    <hkern u1="m" u2="T" k="108" />
    <hkern u1="m" u2="&#x3f;" k="36" />
    <hkern u1="&#xd0;" u2="&#x2122;" k="10" />
    <hkern u1="&#xd0;" u2="&#x201d;" k="10" />
    <hkern u1="&#xd0;" u2="&#x201c;" k="10" />
    <hkern u1="&#xd0;" u2="&#x2019;" k="10" />
    <hkern u1="&#xd0;" u2="&#x2018;" k="10" />
    <hkern u1="&#xd0;" u2="&#xae;" k="10" />
    <hkern u1="&#xd0;" u2="&#x27;" k="10" />
    <hkern u1="&#xd0;" u2="&#x22;" k="10" />
    <hkern u1="&#xd5;" u2="&#x2122;" k="10" />
    <hkern u1="&#xd5;" u2="&#x201d;" k="10" />
    <hkern u1="&#xd5;" u2="&#x201c;" k="10" />
    <hkern u1="&#xd5;" u2="&#x2019;" k="10" />
    <hkern u1="&#xd5;" u2="&#x2018;" k="10" />
    <hkern u1="&#xd5;" u2="&#xae;" k="10" />
    <hkern u1="&#xd5;" u2="&#x27;" k="10" />
    <hkern u1="&#xd5;" u2="&#x22;" k="10" />
    <hkern u1="&#xd6;" u2="&#x2122;" k="10" />
    <hkern u1="&#xd6;" u2="&#x201d;" k="10" />
    <hkern u1="&#xd6;" u2="&#x201c;" k="10" />
    <hkern u1="&#xd6;" u2="&#x2019;" k="10" />
    <hkern u1="&#xd6;" u2="&#x2018;" k="10" />
    <hkern u1="&#xd6;" u2="&#xae;" k="10" />
    <hkern u1="&#xd6;" u2="&#x27;" k="10" />
    <hkern u1="&#xd6;" u2="&#x22;" k="10" />
    <hkern u1="&#xd8;" u2="&#x2122;" k="10" />
    <hkern u1="&#xd8;" u2="&#x201d;" k="10" />
    <hkern u1="&#xd8;" u2="&#x201c;" k="10" />
    <hkern u1="&#xd8;" u2="&#x2019;" k="10" />
    <hkern u1="&#xd8;" u2="&#x2018;" k="10" />
    <hkern u1="&#xd8;" u2="&#xae;" k="10" />
    <hkern u1="&#xd8;" u2="&#x27;" k="10" />
    <hkern u1="&#xd8;" u2="&#x22;" k="10" />
    <hkern u1="&#xde;" u2="&#x2122;" k="10" />
    <hkern u1="&#xde;" u2="&#x201d;" k="10" />
    <hkern u1="&#xde;" u2="&#x201c;" k="10" />
    <hkern u1="&#xde;" u2="&#x2019;" k="10" />
    <hkern u1="&#xde;" u2="&#x2018;" k="10" />
    <hkern u1="&#xde;" u2="&#xae;" k="10" />
    <hkern u1="&#xde;" u2="&#x27;" k="10" />
    <hkern u1="&#xde;" u2="&#x22;" k="10" />
    <hkern u1="&#xf8;" u2="&#x2122;" k="10" />
    <hkern u1="&#xf8;" u2="&#x201d;" k="10" />
    <hkern u1="&#xf8;" u2="&#x201c;" k="10" />
    <hkern u1="&#xf8;" u2="&#x2019;" k="10" />
    <hkern u1="&#xf8;" u2="&#x2018;" k="10" />
    <hkern u1="&#xf8;" u2="&#xae;" k="10" />
    <hkern u1="&#xf8;" u2="&#x27;" k="10" />
    <hkern u1="&#xf8;" u2="&#x22;" k="10" />
    <hkern u1="&#xfe;" u2="&#x2122;" k="10" />
    <hkern u1="&#xfe;" u2="&#x201d;" k="10" />
    <hkern u1="&#xfe;" u2="&#x201c;" k="10" />
    <hkern u1="&#xfe;" u2="&#x2019;" k="10" />
    <hkern u1="&#xfe;" u2="&#x2018;" k="10" />
    <hkern u1="&#xfe;" u2="&#xae;" k="10" />
    <hkern u1="&#xfe;" u2="&#x27;" k="10" />
    <hkern u1="&#xfe;" u2="&#x22;" k="10" />
    <hkern g1="B"
	g2="T"
	k="17" />
    <hkern g1="B"
	g2="V"
	k="13" />
    <hkern g1="B"
	g2="W"
	k="10" />
    <hkern g1="B"
	g2="Y,Yacute,Ydieresis"
	k="30" />
    <hkern g1="B"
	g2="quotedbl,quotesingle,registered,quoteleft,quoteright,quotedblleft,quotedblright,trademark"
	k="10" />
    <hkern g1="C,Ccedilla"
	g2="Y,Yacute,Ydieresis"
	k="16" />
    <hkern g1="D,O,Q,Eth,Ograve,Oacute,Ocircumflex,Otilde,Odieresis,Oslash,Thorn"
	g2="question"
	k="16" />
    <hkern g1="D,O,Q,Eth,Ograve,Oacute,Ocircumflex,Otilde,Odieresis,Oslash,Thorn"
	g2="T"
	k="27" />
    <hkern g1="D,O,Q,Eth,Ograve,Oacute,Ocircumflex,Otilde,Odieresis,Oslash,Thorn"
	g2="V"
	k="20" />
    <hkern g1="D,O,Q,Eth,Ograve,Oacute,Ocircumflex,Otilde,Odieresis,Oslash,Thorn"
	g2="W"
	k="20" />
    <hkern g1="D,O,Q,Eth,Ograve,Oacute,Ocircumflex,Otilde,Odieresis,Oslash,Thorn"
	g2="Y,Yacute,Ydieresis"
	k="40" />
    <hkern g1="D,O,Q,Eth,Ograve,Oacute,Ocircumflex,Otilde,Odieresis,Oslash,Thorn"
	g2="comma,period,quotesinglbase,quotedblbase,ellipsis"
	k="27" />
    <hkern g1="D,O,Q,Eth,Ograve,Oacute,Ocircumflex,Otilde,Odieresis,Oslash,Thorn"
	g2="A,Agrave,Aacute,Acircumflex,Atilde,Adieresis,Aring,AE,Delta"
	k="37" />
    <hkern g1="D,O,Q,Eth,Ograve,Oacute,Ocircumflex,Otilde,Odieresis,Oslash,Thorn"
	g2="J"
	k="20" />
    <hkern g1="D,O,Q,Eth,Ograve,Oacute,Ocircumflex,Otilde,Odieresis,Oslash,Thorn"
	g2="X"
	k="30" />
    <hkern g1="D,O,Q,Eth,Ograve,Oacute,Ocircumflex,Otilde,Odieresis,Oslash,Thorn"
	g2="Z,Zcaron"
	k="17" />
    <hkern g1="F"
	g2="comma,period,quotesinglbase,quotedblbase,ellipsis"
	k="50" />
    <hkern g1="F"
	g2="A,Agrave,Aacute,Acircumflex,Atilde,Adieresis,Aring,AE,Delta"
	k="36" />
    <hkern g1="F"
	g2="J"
	k="59" />
    <hkern g1="K"
	g2="C,G,O,Q,Ccedilla,Ograve,Oacute,Ocircumflex,Otilde,Odieresis,Oslash,OE"
	k="54" />
    <hkern g1="K"
	g2="Y,Yacute,Ydieresis"
	k="21" />
    <hkern g1="K"
	g2="t"
	k="39" />
    <hkern g1="K"
	g2="u"
	k="20" />
    <hkern g1="K"
	g2="v"
	k="60" />
    <hkern g1="K"
	g2="w"
	k="40" />
    <hkern g1="K"
	g2="y,yacute,ydieresis"
	k="20" />
    <hkern g1="K"
	g2="hyphen,periodcentered,endash,emdash"
	k="50" />
    <hkern g1="K"
	g2="c,d,e,g,o,q,ccedilla,eth,oslash,oe"
	k="34" />
    <hkern g1="K"
	g2="x"
	k="26" />
    <hkern g1="K"
	g2="f,fi,fl"
	k="26" />
    <hkern g1="K"
	g2="a,ae"
	k="34" />
    <hkern g1="L,Lslash"
	g2="asterisk"
	k="174" />
    <hkern g1="L,Lslash"
	g2="question"
	k="114" />
    <hkern g1="L,Lslash"
	g2="C,G,O,Q,Ccedilla,Ograve,Oacute,Ocircumflex,Otilde,Odieresis,Oslash,OE"
	k="34" />
    <hkern g1="L,Lslash"
	g2="T"
	k="100" />
    <hkern g1="L,Lslash"
	g2="U,Ugrave,Uacute,Ucircumflex,Udieresis"
	k="27" />
    <hkern g1="L,Lslash"
	g2="V"
	k="90" />
    <hkern g1="L,Lslash"
	g2="W"
	k="66" />
    <hkern g1="L,Lslash"
	g2="Y,Yacute,Ydieresis"
	k="123" />
    <hkern g1="L,Lslash"
	g2="t"
	k="33" />
    <hkern g1="L,Lslash"
	g2="u"
	k="14" />
    <hkern g1="L,Lslash"
	g2="v"
	k="57" />
    <hkern g1="L,Lslash"
	g2="w"
	k="37" />
    <hkern g1="L,Lslash"
	g2="dagger"
	k="130" />
    <hkern g1="L,Lslash"
	g2="quotedbl,quotesingle,registered,quoteleft,quoteright,quotedblleft,quotedblright,trademark"
	k="122" />
    <hkern g1="L,Lslash"
	g2="daggerdbl"
	k="101" />
    <hkern g1="L,Lslash"
	g2="y,yacute,ydieresis"
	k="14" />
    <hkern g1="L,Lslash"
	g2="c,d,e,g,o,q,ccedilla,eth,oslash,oe"
	k="21" />
    <hkern g1="L,Lslash"
	g2="a,ae"
	k="21" />
    <hkern g1="P"
	g2="comma,period,quotesinglbase,quotedblbase,ellipsis"
	k="94" />
    <hkern g1="P"
	g2="A,Agrave,Aacute,Acircumflex,Atilde,Adieresis,Aring,AE,Delta"
	k="77" />
    <hkern g1="P"
	g2="J"
	k="109" />
    <hkern g1="P"
	g2="hyphen,periodcentered,endash,emdash"
	k="34" />
    <hkern g1="P"
	g2="c,d,e,g,o,q,ccedilla,eth,oslash,oe"
	k="13" />
    <hkern g1="P"
	g2="a,ae"
	k="13" />
    <hkern g1="P"
	g2="ampersand"
	k="26" />
    <hkern g1="R"
	g2="T"
	k="10" />
    <hkern g1="R"
	g2="V"
	k="10" />
    <hkern g1="R"
	g2="Y,Yacute,Ydieresis"
	k="16" />
    <hkern g1="R"
	g2="c,d,e,g,o,q,ccedilla,eth,oslash,oe"
	k="30" />
    <hkern g1="R"
	g2="a,ae"
	k="30" />
    <hkern g1="S,Scaron"
	g2="Y,Yacute,Ydieresis"
	k="10" />
    <hkern g1="S,Scaron"
	g2="t"
	k="17" />
    <hkern g1="S,Scaron"
	g2="A,Agrave,Aacute,Acircumflex,Atilde,Adieresis,Aring,AE,Delta"
	k="10" />
    <hkern g1="S,Scaron"
	g2="x"
	k="13" />
    <hkern g1="T"
	g2="C,G,O,Q,Ccedilla,Ograve,Oacute,Ocircumflex,Otilde,Odieresis,Oslash,OE"
	k="27" />
    <hkern g1="T"
	g2="u"
	k="85" />
    <hkern g1="T"
	g2="v"
	k="56" />
    <hkern g1="T"
	g2="w"
	k="56" />
    <hkern g1="T"
	g2="y,yacute,ydieresis"
	k="85" />
    <hkern g1="T"
	g2="comma,period,quotesinglbase,quotedblbase,ellipsis"
	k="93" />
    <hkern g1="T"
	g2="A,Agrave,Aacute,Acircumflex,Atilde,Adieresis,Aring,AE,Delta"
	k="67" />
    <hkern g1="T"
	g2="J"
	k="83" />
    <hkern g1="T"
	g2="hyphen,periodcentered,endash,emdash"
	k="60" />
    <hkern g1="T"
	g2="c,d,e,g,o,q,ccedilla,eth,oslash,oe"
	k="115" />
    <hkern g1="T"
	g2="x"
	k="66" />
    <hkern g1="T"
	g2="f,fi,fl"
	k="31" />
    <hkern g1="T"
	g2="a,ae"
	k="115" />
    <hkern g1="T"
	g2="ampersand"
	k="57" />
    <hkern g1="T"
	g2="colon,semicolon"
	k="50" />
    <hkern g1="T"
	g2="m,n,p,r,z"
	k="85" />
    <hkern g1="T"
	g2="s"
	k="91" />
    <hkern g1="J,U,Ugrave,Uacute,Ucircumflex,Udieresis"
	g2="comma,period,quotesinglbase,quotedblbase,ellipsis"
	k="30" />
    <hkern g1="J,U,Ugrave,Uacute,Ucircumflex,Udieresis"
	g2="A,Agrave,Aacute,Acircumflex,Atilde,Adieresis,Aring,AE,Delta"
	k="26" />
    <hkern g1="J,U,Ugrave,Uacute,Ucircumflex,Udieresis"
	g2="J"
	k="12" />
    <hkern g1="V"
	g2="C,G,O,Q,Ccedilla,Ograve,Oacute,Ocircumflex,Otilde,Odieresis,Oslash,OE"
	k="20" />
    <hkern g1="V"
	g2="t"
	k="13" />
    <hkern g1="V"
	g2="u"
	k="42" />
    <hkern g1="V"
	g2="v"
	k="13" />
    <hkern g1="V"
	g2="y,yacute,ydieresis"
	k="42" />
    <hkern g1="V"
	g2="comma,period,quotesinglbase,quotedblbase,ellipsis"
	k="90" />
    <hkern g1="V"
	g2="A,Agrave,Aacute,Acircumflex,Atilde,Adieresis,Aring,AE,Delta"
	k="54" />
    <hkern g1="V"
	g2="J"
	k="93" />
    <hkern g1="V"
	g2="hyphen,periodcentered,endash,emdash"
	k="53" />
    <hkern g1="V"
	g2="c,d,e,g,o,q,ccedilla,eth,oslash,oe"
	k="60" />
    <hkern g1="V"
	g2="x"
	k="23" />
    <hkern g1="V"
	g2="f,fi,fl"
	k="23" />
    <hkern g1="V"
	g2="a,ae"
	k="60" />
    <hkern g1="V"
	g2="ampersand"
	k="29" />
    <hkern g1="V"
	g2="m,n,p,r,z"
	k="42" />
    <hkern g1="V"
	g2="s"
	k="39" />
    <hkern g1="W"
	g2="C,G,O,Q,Ccedilla,Ograve,Oacute,Ocircumflex,Otilde,Odieresis,Oslash,OE"
	k="20" />
    <hkern g1="W"
	g2="t"
	k="13" />
    <hkern g1="W"
	g2="u"
	k="30" />
    <hkern g1="W"
	g2="y,yacute,ydieresis"
	k="30" />
    <hkern g1="W"
	g2="comma,period,quotesinglbase,quotedblbase,ellipsis"
	k="67" />
    <hkern g1="W"
	g2="A,Agrave,Aacute,Acircumflex,Atilde,Adieresis,Aring,AE,Delta"
	k="47" />
    <hkern g1="W"
	g2="J"
	k="38" />
    <hkern g1="W"
	g2="hyphen,periodcentered,endash,emdash"
	k="33" />
    <hkern g1="W"
	g2="c,d,e,g,o,q,ccedilla,eth,oslash,oe"
	k="40" />
    <hkern g1="W"
	g2="x"
	k="23" />
    <hkern g1="W"
	g2="f,fi,fl"
	k="13" />
    <hkern g1="W"
	g2="a,ae"
	k="40" />
    <hkern g1="W"
	g2="ampersand"
	k="20" />
    <hkern g1="W"
	g2="m,n,p,r,z"
	k="30" />
    <hkern g1="W"
	g2="s"
	k="19" />
    <hkern g1="Y,Yacute,Ydieresis"
	g2="C,G,O,Q,Ccedilla,Ograve,Oacute,Ocircumflex,Otilde,Odieresis,Oslash,OE"
	k="40" />
    <hkern g1="Y,Yacute,Ydieresis"
	g2="S,Scaron"
	k="20" />
    <hkern g1="Y,Yacute,Ydieresis"
	g2="t"
	k="26" />
    <hkern g1="Y,Yacute,Ydieresis"
	g2="u"
	k="90" />
    <hkern g1="Y,Yacute,Ydieresis"
	g2="v"
	k="60" />
    <hkern g1="Y,Yacute,Ydieresis"
	g2="w"
	k="60" />
    <hkern g1="Y,Yacute,Ydieresis"
	g2="y,yacute,ydieresis"
	k="90" />
    <hkern g1="Y,Yacute,Ydieresis"
	g2="comma,period,quotesinglbase,quotedblbase,ellipsis"
	k="90" />
    <hkern g1="Y,Yacute,Ydieresis"
	g2="A,Agrave,Aacute,Acircumflex,Atilde,Adieresis,Aring,AE,Delta"
	k="63" />
    <hkern g1="Y,Yacute,Ydieresis"
	g2="J"
	k="113" />
    <hkern g1="Y,Yacute,Ydieresis"
	g2="hyphen,periodcentered,endash,emdash"
	k="116" />
    <hkern g1="Y,Yacute,Ydieresis"
	g2="c,d,e,g,o,q,ccedilla,eth,oslash,oe"
	k="127" />
    <hkern g1="Y,Yacute,Ydieresis"
	g2="x"
	k="73" />
    <hkern g1="Y,Yacute,Ydieresis"
	g2="f,fi,fl"
	k="49" />
    <hkern g1="Y,Yacute,Ydieresis"
	g2="a,ae"
	k="127" />
    <hkern g1="Y,Yacute,Ydieresis"
	g2="ampersand"
	k="60" />
    <hkern g1="Y,Yacute,Ydieresis"
	g2="colon,semicolon"
	k="59" />
    <hkern g1="Y,Yacute,Ydieresis"
	g2="m,n,p,r,z"
	k="90" />
    <hkern g1="Y,Yacute,Ydieresis"
	g2="s"
	k="100" />
    <hkern g1="Z,Zcaron"
	g2="C,G,O,Q,Ccedilla,Ograve,Oacute,Ocircumflex,Otilde,Odieresis,Oslash,OE"
	k="17" />
    <hkern g1="h,m,n"
	g2="question"
	k="36" />
    <hkern g1="h,m,n"
	g2="T"
	k="108" />
    <hkern g1="h,m,n"
	g2="V"
	k="66" />
    <hkern g1="h,m,n"
	g2="W"
	k="43" />
    <hkern g1="h,m,n"
	g2="Y,Yacute,Ydieresis"
	k="110" />
    <hkern g1="ampersand"
	g2="T"
	k="74" />
    <hkern g1="ampersand"
	g2="V"
	k="50" />
    <hkern g1="ampersand"
	g2="W"
	k="48" />
    <hkern g1="ampersand"
	g2="Y,Yacute,Ydieresis"
	k="91" />
    <hkern g1="asterisk"
	g2="A,Agrave,Aacute,Acircumflex,Atilde,Adieresis,Aring,AE,Delta"
	k="101" />
    <hkern g1="asterisk"
	g2="J"
	k="116" />
    <hkern g1="b,o,p,oslash,thorn"
	g2="question"
	k="46" />
    <hkern g1="b,o,p,oslash,thorn"
	g2="T"
	k="115" />
    <hkern g1="b,o,p,oslash,thorn"
	g2="V"
	k="60" />
    <hkern g1="b,o,p,oslash,thorn"
	g2="W"
	k="40" />
    <hkern g1="b,o,p,oslash,thorn"
	g2="Y,Yacute,Ydieresis"
	k="124" />
    <hkern g1="b,o,p,oslash,thorn"
	g2="x"
	k="37" />
    <hkern g1="c,cent,ccedilla"
	g2="question"
	k="23" />
    <hkern g1="c,cent,ccedilla"
	g2="T"
	k="81" />
    <hkern g1="c,cent,ccedilla"
	g2="V"
	k="36" />
    <hkern g1="c,cent,ccedilla"
	g2="W"
	k="23" />
    <hkern g1="c,cent,ccedilla"
	g2="Y,Yacute,Ydieresis"
	k="63" />
    <hkern g1="colon,semicolon"
	g2="T"
	k="50" />
    <hkern g1="colon,semicolon"
	g2="Y,Yacute,Ydieresis"
	k="59" />
    <hkern g1="e,ae,oe"
	g2="asterisk"
	k="17" />
    <hkern g1="e,ae,oe"
	g2="question"
	k="36" />
    <hkern g1="e,ae,oe"
	g2="T"
	k="101" />
    <hkern g1="e,ae,oe"
	g2="V"
	k="53" />
    <hkern g1="e,ae,oe"
	g2="W"
	k="40" />
    <hkern g1="e,ae,oe"
	g2="Y,Yacute,Ydieresis"
	k="110" />
    <hkern g1="f"
	g2="asterisk"
	k="-67" />
    <hkern g1="f"
	g2="question"
	k="-57" />
    <hkern g1="f"
	g2="S,Scaron"
	k="-23" />
    <hkern g1="f"
	g2="T"
	k="-40" />
    <hkern g1="f"
	g2="U,Ugrave,Uacute,Ucircumflex,Udieresis"
	k="-40" />
    <hkern g1="f"
	g2="V"
	k="-63" />
    <hkern g1="f"
	g2="W"
	k="-63" />
    <hkern g1="f"
	g2="Y,Yacute,Ydieresis"
	k="-56" />
    <hkern g1="f"
	g2="quotedbl,quotesingle,registered,quoteleft,quoteright,quotedblleft,quotedblright,trademark"
	k="-67" />
    <hkern g1="f"
	g2="comma,period,quotesinglbase,quotedblbase,ellipsis"
	k="43" />
    <hkern g1="f"
	g2="X"
	k="-40" />
    <hkern g1="f"
	g2="Z,Zcaron"
	k="-40" />
    <hkern g1="f"
	g2="exclam,B,D,E,F,H,I,K,L,M,N,P,R,Egrave,Eacute,Ecircumflex,Edieresis,Igrave,Iacute,Icircumflex,Idieresis,Eth,Ntilde,Lslash"
	k="-40" />
    <hkern g1="f"
	g2="parenright,bracketright,braceright"
	k="-74" />
    <hkern g1="g,q"
	g2="question"
	k="23" />
    <hkern g1="g,q"
	g2="T"
	k="85" />
    <hkern g1="g,q"
	g2="V"
	k="42" />
    <hkern g1="g,q"
	g2="W"
	k="30" />
    <hkern g1="g,q"
	g2="Y,Yacute,Ydieresis"
	k="90" />
    <hkern g1="g,q"
	g2="j"
	k="-46" />
    <hkern g1="hyphen,periodcentered,endash,emdash"
	g2="V"
	k="53" />
    <hkern g1="hyphen,periodcentered,endash,emdash"
	g2="W"
	k="33" />
    <hkern g1="hyphen,periodcentered,endash,emdash"
	g2="Y,Yacute,Ydieresis"
	k="109" />
    <hkern g1="hyphen,periodcentered,endash,emdash"
	g2="X"
	k="43" />
    <hkern g1="k"
	g2="T"
	k="69" />
    <hkern g1="k"
	g2="V"
	k="23" />
    <hkern g1="k"
	g2="W"
	k="23" />
    <hkern g1="k"
	g2="Y,Yacute,Ydieresis"
	k="66" />
    <hkern g1="k"
	g2="hyphen,periodcentered,endash,emdash"
	k="27" />
    <hkern g1="k"
	g2="bullet"
	k="27" />
    <hkern g1="comma,period,quotesinglbase,quotedblbase,ellipsis"
	g2="T"
	k="93" />
    <hkern g1="comma,period,quotesinglbase,quotedblbase,ellipsis"
	g2="U,Ugrave,Uacute,Ucircumflex,Udieresis"
	k="30" />
    <hkern g1="comma,period,quotesinglbase,quotedblbase,ellipsis"
	g2="V"
	k="87" />
    <hkern g1="comma,period,quotesinglbase,quotedblbase,ellipsis"
	g2="W"
	k="67" />
    <hkern g1="comma,period,quotesinglbase,quotedblbase,ellipsis"
	g2="Y,Yacute,Ydieresis"
	k="90" />
    <hkern g1="comma,period,quotesinglbase,quotedblbase,ellipsis"
	g2="t"
	k="23" />
    <hkern g1="comma,period,quotesinglbase,quotedblbase,ellipsis"
	g2="v"
	k="67" />
    <hkern g1="comma,period,quotesinglbase,quotedblbase,ellipsis"
	g2="w"
	k="44" />
    <hkern g1="comma,period,quotesinglbase,quotedblbase,ellipsis"
	g2="quotedbl,quotesingle,registered,quoteleft,quoteright,quotedblleft,quotedblright,trademark"
	k="76" />
    <hkern g1="comma,period,quotesinglbase,quotedblbase,ellipsis"
	g2="f,fi,fl"
	k="23" />
    <hkern g1="comma,period,quotesinglbase,quotedblbase,ellipsis"
	g2="j"
	k="-40" />
    <hkern g1="comma,period,quotesinglbase,quotedblbase,ellipsis"
	g2="zero,six"
	k="31" />
    <hkern g1="comma,period,quotesinglbase,quotedblbase,ellipsis"
	g2="one"
	k="78" />
    <hkern g1="comma,period,quotesinglbase,quotedblbase,ellipsis"
	g2="seven"
	k="66" />
    <hkern g1="questiondown"
	g2="j"
	k="-160" />
    <hkern g1="quotedbl,quotesingle,quoteleft,quoteright,quotedblleft,quotedblright"
	g2="comma,period,quotesinglbase,quotedblbase,ellipsis"
	k="76" />
    <hkern g1="quotedbl,quotesingle,quoteleft,quoteright,quotedblleft,quotedblright"
	g2="A,Agrave,Aacute,Acircumflex,Atilde,Adieresis,Aring,AE,Delta"
	k="104" />
    <hkern g1="quotedbl,quotesingle,quoteleft,quoteright,quotedblleft,quotedblright"
	g2="J"
	k="92" />
    <hkern g1="quotedbl,quotesingle,quoteleft,quoteright,quotedblleft,quotedblright"
	g2="s"
	k="30" />
    <hkern g1="r"
	g2="T"
	k="48" />
    <hkern g1="r"
	g2="V"
	k="23" />
    <hkern g1="r"
	g2="Y,Yacute,Ydieresis"
	k="50" />
    <hkern g1="r"
	g2="comma,period,quotesinglbase,quotedblbase,ellipsis"
	k="83" />
    <hkern g1="s"
	g2="question"
	k="43" />
    <hkern g1="s"
	g2="T"
	k="88" />
    <hkern g1="s"
	g2="V"
	k="43" />
    <hkern g1="s"
	g2="W"
	k="39" />
    <hkern g1="s"
	g2="Y,Yacute,Ydieresis"
	k="93" />
    <hkern g1="s"
	g2="quotedbl,quotesingle,registered,quoteleft,quoteright,quotedblleft,quotedblright,trademark"
	k="20" />
    <hkern g1="t"
	g2="T"
	k="52" />
    <hkern g1="t"
	g2="V"
	k="26" />
    <hkern g1="t"
	g2="W"
	k="13" />
    <hkern g1="t"
	g2="Y,Yacute,Ydieresis"
	k="33" />
    <hkern g1="u,z"
	g2="question"
	k="23" />
    <hkern g1="u,z"
	g2="T"
	k="85" />
    <hkern g1="u,z"
	g2="V"
	k="42" />
    <hkern g1="u,z"
	g2="W"
	k="30" />
    <hkern g1="u,z"
	g2="Y,Yacute,Ydieresis"
	k="90" />
    <hkern g1="v"
	g2="T"
	k="56" />
    <hkern g1="v"
	g2="V"
	k="13" />
    <hkern g1="v"
	g2="Y,Yacute,Ydieresis"
	k="60" />
    <hkern g1="v"
	g2="comma,period,quotesinglbase,quotedblbase,ellipsis"
	k="67" />
    <hkern g1="v"
	g2="A,Agrave,Aacute,Acircumflex,Atilde,Adieresis,Aring,AE,Delta"
	k="20" />
    <hkern g1="v"
	g2="X"
	k="37" />
    <hkern g1="w"
	g2="T"
	k="56" />
    <hkern g1="w"
	g2="Y,Yacute,Ydieresis"
	k="60" />
    <hkern g1="w"
	g2="comma,period,quotesinglbase,quotedblbase,ellipsis"
	k="44" />
    <hkern g1="w"
	g2="A,Agrave,Aacute,Acircumflex,Atilde,Adieresis,Aring,AE,Delta"
	k="17" />
    <hkern g1="w"
	g2="X"
	k="44" />
    <hkern g1="y,yacute,ydieresis"
	g2="question"
	k="23" />
    <hkern g1="y,yacute,ydieresis"
	g2="T"
	k="85" />
    <hkern g1="y,yacute,ydieresis"
	g2="V"
	k="42" />
    <hkern g1="y,yacute,ydieresis"
	g2="W"
	k="30" />
    <hkern g1="y,yacute,ydieresis"
	g2="Y,Yacute,Ydieresis"
	k="90" />
    <hkern g1="y,yacute,ydieresis"
	g2="j"
	k="-46" />
    <hkern g1="X"
	g2="C,G,O,Q,Ccedilla,Ograve,Oacute,Ocircumflex,Otilde,Odieresis,Oslash,OE"
	k="30" />
    <hkern g1="X"
	g2="t"
	k="30" />
    <hkern g1="X"
	g2="v"
	k="37" />
    <hkern g1="X"
	g2="w"
	k="44" />
    <hkern g1="X"
	g2="hyphen,periodcentered,endash,emdash"
	k="43" />
    <hkern g1="X"
	g2="f,fi,fl"
	k="30" />
    <hkern g1="zero,nine"
	g2="comma,period,quotesinglbase,quotedblbase,ellipsis"
	k="31" />
    <hkern g1="seven"
	g2="comma,period,quotesinglbase,quotedblbase,ellipsis"
	k="97" />
    <hkern g1="x"
	g2="T"
	k="66" />
    <hkern g1="x"
	g2="V"
	k="23" />
    <hkern g1="x"
	g2="W"
	k="23" />
    <hkern g1="x"
	g2="Y,Yacute,Ydieresis"
	k="73" />
    <hkern g1="x"
	g2="c,d,e,g,o,q,ccedilla,eth,oslash,oe"
	k="37" />
    <hkern g1="x"
	g2="a,ae"
	k="37" />
    <hkern g1="parenleft,bracketleft,braceleft"
	g2="j"
	k="-110" />
  </font>
</defs></svg>
